%YAML 1.1
%TAG !u! tag:unity3d.com,2011:
--- !u!319 &31900000
AvatarMask:
  m_ObjectHideFlags: 0
  m_PrefabParentObject: {fileID: 0}
  m_PrefabInternal: {fileID: 0}
  m_Name: girlkickmask
  m_Mask: 00000000000000000000000000000000000000000000000000000000000000000000000000000000000000000000000001000000
  m_Elements:
  - m_Path: 
    m_Weight: 1
  - m_Path: girl01_2
    m_Weight: 0
  - m_Path: Root_jnt
    m_Weight: 0
  - m_Path: Root_jnt/Hips_jnt
    m_Weight: 0
  - m_Path: Root_jnt/Hips_jnt/Body_jnt
    m_Weight: 0
  - m_Path: Root_jnt/Hips_jnt/Body_jnt/Spine_jnt
    m_Weight: 0
  - m_Path: Root_jnt/Hips_jnt/Body_jnt/Spine_jnt/Head_jnt
    m_Weight: 0
  - m_Path: Root_jnt/Hips_jnt/Body_jnt/Spine_jnt/Head_jnt/Hat_jnt
    m_Weight: 0
  - m_Path: Root_jnt/Hips_jnt/Body_jnt/Spine_jnt/Head_jnt/Hat_jnt/h01
    m_Weight: 0
  - m_Path: Root_jnt/Hips_jnt/Body_jnt/Spine_jnt/Head_jnt/Hat_jnt/h02
    m_Weight: 0
  - m_Path: Root_jnt/Hips_jnt/Body_jnt/Spine_jnt/Head_jnt/Hat_jnt/h03
    m_Weight: 0
  - m_Path: Root_jnt/Hips_jnt/Body_jnt/Spine_jnt/Head_jnt/Hat_jnt/h04
    m_Weight: 0
  - m_Path: Root_jnt/Hips_jnt/Body_jnt/Spine_jnt/Head_jnt/Hat_jnt/h05
    m_Weight: 0
  - m_Path: Root_jnt/Hips_jnt/Body_jnt/Spine_jnt/Head_jnt/Hat_jnt/h06
    m_Weight: 0
  - m_Path: Root_jnt/Hips_jnt/Body_jnt/Spine_jnt/Head_jnt/Hat_jnt/h07
    m_Weight: 0
  - m_Path: Root_jnt/Hips_jnt/Body_jnt/Spine_jnt/Head_jnt/Hat_jnt/h08
    m_Weight: 0
  - m_Path: Root_jnt/Hips_jnt/Body_jnt/Spine_jnt/Head_jnt/Hat_jnt/h09
    m_Weight: 0
  - m_Path: Root_jnt/Hips_jnt/Body_jnt/Spine_jnt/Head_jnt/Hat_jnt/h10
    m_Weight: 0
  - m_Path: Root_jnt/Hips_jnt/Body_jnt/Spine_jnt/UpperArm_Left_jnt
    m_Weight: 0
  - m_Path: Root_jnt/Hips_jnt/Body_jnt/Spine_jnt/UpperArm_Left_jnt/LowerArm_Left_jnt
    m_Weight: 0
  - m_Path: Root_jnt/Hips_jnt/Body_jnt/Spine_jnt/UpperArm_Left_jnt/LowerArm_Left_jnt/Hand_Left_jnt
    m_Weight: 0
  - m_Path: Root_jnt/Hips_jnt/Body_jnt/Spine_jnt/UpperArm_Right_jnt
    m_Weight: 0
  - m_Path: Root_jnt/Hips_jnt/Body_jnt/Spine_jnt/UpperArm_Right_jnt/LowerArm_Right_jnt
    m_Weight: 0
  - m_Path: Root_jnt/Hips_jnt/Body_jnt/Spine_jnt/UpperArm_Right_jnt/LowerArm_Right_jnt/Hand_Right_jnt
    m_Weight: 0
  - m_Path: Root_jnt/Hips_jnt/UpperLeg_Left_jnt
    m_Weight: 0
  - m_Path: Root_jnt/Hips_jnt/UpperLeg_Left_jnt/LowerLeg_Left_jnt
    m_Weight: 1
  - m_Path: Root_jnt/Hips_jnt/UpperLeg_Left_jnt/LowerLeg_Left_jnt/Foot_Left_jnt
    m_Weight: 0
  - m_Path: Root_jnt/Hips_jnt/UpperLeg_Right_jnt
    m_Weight: 0
  - m_Path: Root_jnt/Hips_jnt/UpperLeg_Right_jnt/LowerLeg_Right_jnt
    m_Weight: 0
  - m_Path: Root_jnt/Hips_jnt/UpperLeg_Right_jnt/LowerLeg_Right_jnt/Foot_Right_jnt
    m_Weight: 0
