%YAML 1.1
%TAG !u! tag:unity3d.com,2011:
--- !u!74 &7400000
AnimationClip:
  m_ObjectHideFlags: 0
  m_PrefabParentObject: {fileID: 0}
  m_PrefabInternal: {fileID: 0}
  m_Name: 05
  serializedVersion: 6
  m_Legacy: 0
  m_Compressed: 0
  m_UseHighQualityCurve: 1
  m_RotationCurves: []
  m_CompressedRotationCurves: []
  m_EulerCurves:
  - curve:
      serializedVersion: 2
      m_Curve:
      - serializedVersion: 2
        time: 0
        value: {x: 0, y: 0, z: 0}
        inSlope: {x: 0, y: 0, z: 0}
        outSlope: {x: 0, y: 0, z: 0}
        tangentMode: 0
      - serializedVersion: 2
        time: 1
        value: {x: 0, y: 0, z: 0}
        inSlope: {x: -0, y: -0, z: -0}
        outSlope: {x: 0, y: 0, z: 0}
        tangentMode: 0
      - serializedVersion: 2
        time: 1.5
        value: {x: 0, y: 0, z: 0}
        inSlope: {x: -0, y: -0, z: -0}
        outSlope: {x: 0, y: 0, z: 0}
        tangentMode: 0
      - serializedVersion: 2
        time: 4.9333334
        value: {x: 0, y: 0, z: 0}
        inSlope: {x: 0, y: 0, z: 0}
        outSlope: {x: 0, y: 0, z: 0}
        tangentMode: 0
      - serializedVersion: 2
        time: 5.9333334
        value: {x: 0, y: 0, z: 0}
        inSlope: {x: 0, y: 0, z: 0}
        outSlope: {x: 0, y: 0, z: 0}
        tangentMode: 0
      - serializedVersion: 2
        time: 6.9333334
        value: {x: 0, y: 0, z: 0}
        inSlope: {x: 0, y: 0, z: 0}
        outSlope: {x: 0, y: 0, z: 0}
        tangentMode: 0
      m_PreInfinity: 2
      m_PostInfinity: 2
      m_RotationOrder: 4
    path: 
  m_PositionCurves:
  - curve:
      serializedVersion: 2
      m_Curve:
      - serializedVersion: 2
        time: 0
        value: {x: 74.34, y: 6.25, z: 7.5273438}
        inSlope: {x: 0, y: 0, z: 0}
        outSlope: {x: 0, y: 2.4799995, z: 0}
        tangentMode: 0
      - serializedVersion: 2
        time: 1
        value: {x: 74.34, y: 8.73, z: 7.5273438}
        inSlope: {x: -0, y: 2.4799995, z: -0}
        outSlope: {x: 0, y: 0, z: 0}
        tangentMode: 0
      - serializedVersion: 2
        time: 1.5
        value: {x: 74.34, y: 8.73, z: 7.5273438}
        inSlope: {x: -0, y: -0, z: -0}
        outSlope: {x: 0, y: 0, z: 0}
        tangentMode: 0
      - serializedVersion: 2
        time: 4.2166667
        value: {x: 74.34, y: 8.73, z: 7.5273438}
        inSlope: {x: -0, y: -0, z: -0}
        outSlope: {x: 0, y: -3.4604642, z: 0}
        tangentMode: 0
      - serializedVersion: 2
        time: 4.9333334
        value: {x: 74.34, y: 6.25, z: 7.5273438}
        inSlope: {x: 0, y: -0.2958909, z: 0}
        outSlope: {x: 0, y: -0.2958909, z: 0}
        tangentMode: 0
      - serializedVersion: 2
        time: 5.4333334
        value: {x: 74.34, y: 6.16, z: 7.5273438}
        inSlope: {x: 0, y: 0, z: 0}
        outSlope: {x: 0, y: 0, z: 0}
        tangentMode: 0
      - serializedVersion: 2
        time: 5.9333334
        value: {x: 74.34, y: 6.25, z: 7.5273438}
        inSlope: {x: 0, y: 0, z: 0}
        outSlope: {x: 0, y: 0, z: 0}
        tangentMode: 0
      - serializedVersion: 2
        time: 6.4333334
        value: {x: 74.34, y: 6.16, z: 7.5273438}
        inSlope: {x: 0, y: 0, z: 0}
        outSlope: {x: 0, y: 0, z: 0}
        tangentMode: 0
      - serializedVersion: 2
        time: 6.9333334
        value: {x: 74.34, y: 6.25, z: 7.5273438}
        inSlope: {x: 0, y: 0, z: 0}
        outSlope: {x: 0, y: 0, z: 0}
        tangentMode: 0
      m_PreInfinity: 2
      m_PostInfinity: 2
      m_RotationOrder: 4
    path: 
  - curve:
      serializedVersion: 2
      m_Curve:
      - serializedVersion: 2
        time: 0
        value: {x: -1.786131, y: -2.47, z: 7.114441}
        inSlope: {x: 0, y: 0, z: 0}
        outSlope: {x: 0, y: 48.600002, z: 0}
        tangentMode: 0
      - serializedVersion: 2
        time: 0.016666668
        value: {x: -1.786131, y: -1.66, z: 7.114441}
        inSlope: {x: -0, y: 48.600002, z: -0}
        outSlope: {x: -0.00000036368934, y: -2.877966, z: 0.00000048491916}
        tangentMode: 0
      - serializedVersion: 2
        time: 1
        value: {x: -1.7861314, y: -4.49, z: 7.1144414}
        inSlope: {x: -0.00000036368934, y: -2.877966, z: 0.00000048491916}
        outSlope: {x: 0, y: 0, z: 0}
        tangentMode: 0
      - serializedVersion: 2
        time: 1.5
        value: {x: -1.7861314, y: -4.49, z: 7.1144414}
        inSlope: {x: -0, y: -0, z: -0}
        outSlope: {x: -9.5004225, y: -4.1526318, z: 0}
        tangentMode: 0
      - serializedVersion: 2
        time: 2.7666667
        value: {x: -13.82, y: -9.75, z: 7.1144414}
        inSlope: {x: -9.5004225, y: -4.1526318, z: -0}
        outSlope: {x: 0, y: 0, z: 0}
        tangentMode: 0
      m_PreInfinity: 2
      m_PostInfinity: 2
      m_RotationOrder: 4
    path: SLJ
  - curve:
      serializedVersion: 2
      m_Curve:
      - serializedVersion: 2
        time: 0
        value: {x: 1.85, y: -4.53, z: 7.114441}
        inSlope: {x: 0, y: 0, z: 0}
        outSlope: {x: 0, y: 172.20001, z: 0.000028610228}
        tangentMode: 0
      - serializedVersion: 2
        time: 0.016666668
        value: {x: 1.85, y: -1.66, z: 7.1144414}
        inSlope: {x: -0, y: 172.20001, z: 0.000028610228}
        outSlope: {x: 0, y: -2.877966, z: 0}
        tangentMode: 0
      - serializedVersion: 2
        time: 1
        value: {x: 1.85, y: -4.49, z: 7.1144414}
        inSlope: {x: -0, y: -2.877966, z: -0}
        outSlope: {x: 0, y: 0, z: 0}
        tangentMode: 0
      - serializedVersion: 2
        time: 1.5
        value: {x: 1.85, y: -4.49, z: 7.1144414}
        inSlope: {x: -0, y: -0, z: -0}
        outSlope: {x: -0.02307697, y: 0, z: 0}
        tangentMode: 0
      - serializedVersion: 2
        time: 3.2333333
        value: {x: 1.81, y: -4.49, z: 7.1144414}
        inSlope: {x: -0.051613007, y: 0, z: 0}
        outSlope: {x: -0.051613007, y: 0, z: 0}
        tangentMode: 0
      - serializedVersion: 2
        time: 4.6
        value: {x: -15.15, y: -9.9, z: 7.1144414}
        inSlope: {x: 0, y: 0, z: 0}
        outSlope: {x: 0, y: 0, z: 0}
        tangentMode: 0
      m_PreInfinity: 2
      m_PostInfinity: 2
      m_RotationOrder: 4
    path: SLJ (2)
  - curve:
      serializedVersion: 2
      m_Curve:
      - serializedVersion: 2
        time: 0
        value: {x: 0.05, y: -4.53, z: 7.114441}
        inSlope: {x: 0, y: 0, z: 0}
        outSlope: {x: 0, y: 172.20001, z: 0.000028610228}
        tangentMode: 0
      - serializedVersion: 2
        time: 0.016666668
        value: {x: 0.05, y: -1.66, z: 7.1144414}
        inSlope: {x: -0, y: 172.20001, z: 0.000028610228}
        outSlope: {x: 0, y: -2.877966, z: 0}
        tangentMode: 0
      - serializedVersion: 2
        time: 1
        value: {x: 0.05, y: -4.49, z: 7.1144414}
        inSlope: {x: -0, y: -2.877966, z: -0}
        outSlope: {x: 0, y: 0, z: 0}
        tangentMode: 0
      - serializedVersion: 2
        time: 1.5
        value: {x: 0.05, y: -4.49, z: 7.1144414}
        inSlope: {x: -0, y: -0, z: -0}
        outSlope: {x: -0.04, y: 0, z: 0}
        tangentMode: 0
      - serializedVersion: 2
        time: 2.5
        value: {x: 0.01, y: -4.49, z: 7.1144414}
        inSlope: {x: -0.07933884, y: 0, z: 0}
        outSlope: {x: -0.07933884, y: 0, z: 0}
        tangentMode: 0
      - serializedVersion: 2
        time: 3.5166667
        value: {x: -14.12, y: -5, z: 7.1144414}
        inSlope: {x: 0, y: 0, z: 0}
        outSlope: {x: 0, y: 0, z: 0}
        tangentMode: 0
      m_PreInfinity: 2
      m_PostInfinity: 2
      m_RotationOrder: 4
    path: SLJ (1)
  m_ScaleCurves:
  - curve:
      serializedVersion: 2
      m_Curve:
      - serializedVersion: 2
        time: 0
        value: {x: 0.5094788, y: 0.5094787, z: 0.50947875}
        inSlope: {x: 0, y: 0, z: 0}
        outSlope: {x: 0, y: 0.000000059604645, z: -0.000000059604645}
        tangentMode: 0
      - serializedVersion: 2
        time: 1
        value: {x: 0.5094788, y: 0.50947875, z: 0.5094787}
        inSlope: {x: -0, y: 0.000000059604645, z: -0.000000059604645}
        outSlope: {x: 0, y: 0, z: 0}
        tangentMode: 0
      - serializedVersion: 2
        time: 1.5
        value: {x: 0.5094788, y: 0.50947875, z: 0.5094787}
        inSlope: {x: -0, y: -0, z: -0}
        outSlope: {x: 0, y: 0, z: 0}
        tangentMode: 0
      - serializedVersion: 2
        time: 4.9333334
        value: {x: 0.5094788, y: 0.5094787, z: 0.50947875}
        inSlope: {x: 0, y: 0, z: 0}
        outSlope: {x: 0, y: 0, z: 0}
        tangentMode: 0
      - serializedVersion: 2
        time: 5.9333334
        value: {x: 0.5094788, y: 0.5094787, z: 0.50947875}
        inSlope: {x: 0, y: 0, z: 0}
        outSlope: {x: 0, y: 0, z: 0}
        tangentMode: 0
      - serializedVersion: 2
        time: 6.9333334
        value: {x: 0.5094788, y: 0.5094787, z: 0.50947875}
        inSlope: {x: 0, y: 0, z: 0}
        outSlope: {x: 0, y: 0, z: 0}
        tangentMode: 0
      m_PreInfinity: 2
      m_PostInfinity: 2
      m_RotationOrder: 4
    path: 
  m_FloatCurves:
  - curve:
      serializedVersion: 2
      m_Curve:
      - serializedVersion: 2
        time: 0
        value: 0
        inSlope: Infinity
        outSlope: 59.999996
        tangentMode: 69
      - serializedVersion: 2
        time: 0.016666668
        value: 1
        inSlope: 59.999996
        outSlope: 0
        tangentMode: 69
      - serializedVersion: 2
        time: 1
        value: 1
        inSlope: -0
        outSlope: 0
        tangentMode: 69
      - serializedVersion: 2
        time: 1.5
        value: 1
        inSlope: -0
        outSlope: -0.36809817
        tangentMode: 69
      - serializedVersion: 2
        time: 4.2166667
        value: 0
        inSlope: Infinity
        outSlope: Infinity
        tangentMode: 103
      m_PreInfinity: 2
      m_PostInfinity: 2
      m_RotationOrder: 4
    attribute: m_IsActive
    path: SLJ
    classID: 1
    script: {fileID: 0}
  - curve:
      serializedVersion: 2
      m_Curve:
      - serializedVersion: 2
        time: 0
        value: 0
        inSlope: Infinity
        outSlope: 59.999996
        tangentMode: 69
      - serializedVersion: 2
        time: 0.016666668
        value: 1
        inSlope: 59.999996
        outSlope: 0
        tangentMode: 69
      - serializedVersion: 2
        time: 1
        value: 1
        inSlope: Infinity
        outSlope: Infinity
        tangentMode: 103
      - serializedVersion: 2
        time: 1.5
        value: 1
        inSlope: Infinity
        outSlope: Infinity
        tangentMode: 103
      - serializedVersion: 2
        time: 4.2166667
        value: 0
        inSlope: Infinity
        outSlope: Infinity
        tangentMode: 103
      m_PreInfinity: 2
      m_PostInfinity: 2
      m_RotationOrder: 4
    attribute: m_IsActive
    path: SLJ (1)
    classID: 1
    script: {fileID: 0}
  - curve:
      serializedVersion: 2
      m_Curve:
      - serializedVersion: 2
        time: 0
        value: 0
        inSlope: Infinity
        outSlope: 59.999996
        tangentMode: 69
      - serializedVersion: 2
        time: 0.016666668
        value: 1
        inSlope: 59.999996
        outSlope: 0
        tangentMode: 69
      - serializedVersion: 2
        time: 1
        value: 1
        inSlope: Infinity
        outSlope: Infinity
        tangentMode: 103
      - serializedVersion: 2
        time: 1.5
        value: 1
        inSlope: Infinity
        outSlope: Infinity
        tangentMode: 103
      - serializedVersion: 2
        time: 4.6
        value: 0
        inSlope: Infinity
        outSlope: Infinity
        tangentMode: 103
      m_PreInfinity: 2
      m_PostInfinity: 2
      m_RotationOrder: 4
    attribute: m_IsActive
    path: SLJ (2)
    classID: 1
    script: {fileID: 0}
  - curve:
      serializedVersion: 2
      m_Curve:
      - serializedVersion: 2
        time: 0
        value: 1
        inSlope: Infinity
        outSlope: Infinity
        tangentMode: 103
      m_PreInfinity: 2
      m_PostInfinity: 2
      m_RotationOrder: 4
    attribute: m_IsActive
    path: red/4
    classID: 1
    script: {fileID: 0}
  - curve:
      serializedVersion: 2
      m_Curve:
      - serializedVersion: 2
        time: 0
        value: 0
        inSlope: Infinity
        outSlope: Infinity
        tangentMode: 103
      m_PreInfinity: 2
      m_PostInfinity: 2
      m_RotationOrder: 4
    attribute: m_IsActive
    path: red/8
    classID: 1
    script: {fileID: 0}
  - curve:
      serializedVersion: 2
      m_Curve:
      - serializedVersion: 2
        time: 0
        value: 1
        inSlope: Infinity
        outSlope: Infinity
        tangentMode: 103
      m_PreInfinity: 2
      m_PostInfinity: 2
      m_RotationOrder: 4
    attribute: m_IsActive
    path: red
    classID: 1
    script: {fileID: 0}
  - curve:
      serializedVersion: 2
      m_Curve:
      - serializedVersion: 2
        time: 0
        value: 0
        inSlope: Infinity
        outSlope: Infinity
        tangentMode: 103
      m_PreInfinity: 2
      m_PostInfinity: 2
      m_RotationOrder: 4
    attribute: m_IsActive
    path: red/1
    classID: 1
    script: {fileID: 0}
  - curve:
      serializedVersion: 2
      m_Curve:
      - serializedVersion: 2
        time: 0
        value: 0
        inSlope: Infinity
        outSlope: Infinity
        tangentMode: 103
      m_PreInfinity: 2
      m_PostInfinity: 2
      m_RotationOrder: 4
    attribute: m_IsActive
    path: red/3
    classID: 1
    script: {fileID: 0}
  - curve:
      serializedVersion: 2
      m_Curve:
      - serializedVersion: 2
        time: 0
        value: 0
        inSlope: Infinity
        outSlope: Infinity
        tangentMode: 103
      m_PreInfinity: 2
      m_PostInfinity: 2
      m_RotationOrder: 4
    attribute: m_IsActive
    path: red/5
    classID: 1
    script: {fileID: 0}
  - curve:
      serializedVersion: 2
      m_Curve:
      - serializedVersion: 2
        time: 0
        value: 0
        inSlope: Infinity
        outSlope: Infinity
        tangentMode: 103
      m_PreInfinity: 2
      m_PostInfinity: 2
      m_RotationOrder: 4
    attribute: m_IsActive
    path: red/6
    classID: 1
    script: {fileID: 0}
  - curve:
      serializedVersion: 2
      m_Curve:
      - serializedVersion: 2
        time: 0
        value: 0
        inSlope: Infinity
        outSlope: Infinity
        tangentMode: 103
      m_PreInfinity: 2
      m_PostInfinity: 2
      m_RotationOrder: 4
    attribute: m_IsActive
    path: red/7
    classID: 1
    script: {fileID: 0}
  - curve:
      serializedVersion: 2
      m_Curve:
      - serializedVersion: 2
        time: 0
        value: 0
        inSlope: Infinity
        outSlope: Infinity
        tangentMode: 103
      m_PreInfinity: 2
      m_PostInfinity: 2
      m_RotationOrder: 4
    attribute: m_IsActive
    path: red/2
    classID: 1
    script: {fileID: 0}
  - curve:
      serializedVersion: 2
      m_Curve:
      - serializedVersion: 2
        time: 0
        value: 0
        inSlope: Infinity
        outSlope: Infinity
        tangentMode: 103
      - serializedVersion: 2
        time: 0.13333334
        value: 1
        inSlope: Infinity
        outSlope: Infinity
        tangentMode: 103
      - serializedVersion: 2
        time: 5
        value: 0
        inSlope: Infinity
        outSlope: Infinity
        tangentMode: 103
      m_PreInfinity: 2
      m_PostInfinity: 2
      m_RotationOrder: 4
    attribute: m_IsActive
    path: audioG/05/soso2_co
    classID: 1
    script: {fileID: 0}
  - curve:
      serializedVersion: 2
      m_Curve:
      - serializedVersion: 2
        time: 0
        value: 0
        inSlope: Infinity
        outSlope: Infinity
        tangentMode: 103
      - serializedVersion: 2
        time: 1.6333333
        value: 1
        inSlope: Infinity
        outSlope: Infinity
        tangentMode: 103
      - serializedVersion: 2
        time: 5
        value: 0
        inSlope: Infinity
        outSlope: Infinity
        tangentMode: 103
      m_PreInfinity: 2
      m_PostInfinity: 2
      m_RotationOrder: 4
    attribute: m_IsActive
    path: audioG/05/soso2_co (1)
    classID: 1
    script: {fileID: 0}
  - curve:
      serializedVersion: 2
      m_Curve:
      - serializedVersion: 2
        time: 0
        value: 0
        inSlope: Infinity
        outSlope: Infinity
        tangentMode: 103
      - serializedVersion: 2
        time: 2.7333333
        value: 1
        inSlope: Infinity
        outSlope: Infinity
        tangentMode: 103
      - serializedVersion: 2
        time: 5
        value: 0
        inSlope: Infinity
        outSlope: Infinity
        tangentMode: 103
      m_PreInfinity: 2
      m_PostInfinity: 2
      m_RotationOrder: 4
    attribute: m_IsActive
    path: audioG/05/soso2_co (2)
    classID: 1
    script: {fileID: 0}
  - curve:
      serializedVersion: 2
      m_Curve:
      - serializedVersion: 2
        time: 0
        value: 0
        inSlope: Infinity
        outSlope: Infinity
        tangentMode: 103
      - serializedVersion: 2
        time: 3.5333333
        value: 1
        inSlope: Infinity
        outSlope: Infinity
        tangentMode: 103
      - serializedVersion: 2
        time: 5
        value: 0
        inSlope: Infinity
        outSlope: Infinity
        tangentMode: 103
      m_PreInfinity: 2
      m_PostInfinity: 2
      m_RotationOrder: 4
    attribute: m_IsActive
    path: audioG/05/soso2_co (3)
    classID: 1
    script: {fileID: 0}
  m_PPtrCurves: []
  m_SampleRate: 60
  m_WrapMode: 0
  m_Bounds:
    m_Center: {x: 0, y: 0, z: 0}
    m_Extent: {x: 0, y: 0, z: 0}
  m_ClipBindingConstant:
    genericBindings:
    - serializedVersion: 2
      path: 0
      attribute: 1
      script: {fileID: 0}
      typeID: 4
      customType: 0
      isPPtrCurve: 0
    - serializedVersion: 2
      path: 1535041916
      attribute: 1
      script: {fileID: 0}
      typeID: 4
      customType: 0
      isPPtrCurve: 0
    - serializedVersion: 2
      path: 3693531856
      attribute: 1
      script: {fileID: 0}
      typeID: 4
      customType: 0
      isPPtrCurve: 0
    - serializedVersion: 2
      path: 4144726291
      attribute: 1
      script: {fileID: 0}
      typeID: 4
      customType: 0
      isPPtrCurve: 0
    - serializedVersion: 2
      path: 1535041916
      attribute: 2086281974
      script: {fileID: 0}
      typeID: 1
      customType: 0
      isPPtrCurve: 0
    - serializedVersion: 2
      path: 4144726291
      attribute: 2086281974
      script: {fileID: 0}
      typeID: 1
      customType: 0
      isPPtrCurve: 0
    - serializedVersion: 2
      path: 3693531856
      attribute: 2086281974
      script: {fileID: 0}
      typeID: 1
      customType: 0
      isPPtrCurve: 0
    - serializedVersion: 2
      path: 901704871
      attribute: 2086281974
      script: {fileID: 0}
      typeID: 1
      customType: 0
      isPPtrCurve: 0
    - serializedVersion: 2
      path: 1007198348
      attribute: 2086281974
      script: {fileID: 0}
      typeID: 1
      customType: 0
      isPPtrCurve: 0
    - serializedVersion: 2
      path: 4200685455
      attribute: 2086281974
      script: {fileID: 0}
      typeID: 1
      customType: 0
      isPPtrCurve: 0
    - serializedVersion: 2
      path: 1171527720
      attribute: 2086281974
      script: {fileID: 0}
      typeID: 1
      customType: 0
      isPPtrCurve: 0
    - serializedVersion: 2
      path: 2883221764
      attribute: 2086281974
      script: {fileID: 0}
      typeID: 1
      customType: 0
      isPPtrCurve: 0
    - serializedVersion: 2
      path: 1119476785
      attribute: 2086281974
      script: {fileID: 0}
      typeID: 1
      customType: 0
      isPPtrCurve: 0
    - serializedVersion: 2
      path: 3685780875
      attribute: 2086281974
      script: {fileID: 0}
      typeID: 1
      customType: 0
      isPPtrCurve: 0
    - serializedVersion: 2
      path: 2897722653
      attribute: 2086281974
      script: {fileID: 0}
      typeID: 1
      customType: 0
      isPPtrCurve: 0
    - serializedVersion: 2
      path: 3705489810
      attribute: 2086281974
      script: {fileID: 0}
      typeID: 1
      customType: 0
      isPPtrCurve: 0
    - serializedVersion: 2
      path: 3399782334
      attribute: 2086281974
      script: {fileID: 0}
      typeID: 1
      customType: 0
      isPPtrCurve: 0
    - serializedVersion: 2
      path: 2514079731
      attribute: 2086281974
      script: {fileID: 0}
      typeID: 1
      customType: 0
      isPPtrCurve: 0
    - serializedVersion: 2
      path: 3203701808
      attribute: 2086281974
      script: {fileID: 0}
      typeID: 1
      customType: 0
      isPPtrCurve: 0
    - serializedVersion: 2
      path: 2817502577
      attribute: 2086281974
      script: {fileID: 0}
      typeID: 1
      customType: 0
      isPPtrCurve: 0
    - serializedVersion: 2
      path: 0
      attribute: 4
      script: {fileID: 0}
      typeID: 4
      customType: 14
      isPPtrCurve: 0
    - serializedVersion: 2
      path: 0
      attribute: 3
      script: {fileID: 0}
      typeID: 4
      customType: 0
      isPPtrCurve: 0
    pptrCurveMapping: []
  m_AnimationClipSettings:
    serializedVersion: 2
    m_AdditiveReferencePoseClip: {fileID: 0}
    m_AdditiveReferencePoseTime: 0
    m_StartTime: 0
    m_StopTime: 6.9333334
    m_OrientationOffsetY: 0
    m_Level: 0
    m_CycleOffset: 0
    m_HasAdditiveReferencePose: 0
    m_LoopTime: 0
    m_LoopBlend: 0
    m_LoopBlendOrientation: 0
    m_LoopBlendPositionY: 0
    m_LoopBlendPositionXZ: 0
    m_KeepOriginalOrientation: 0
    m_KeepOriginalPositionY: 1
    m_KeepOriginalPositionXZ: 0
    m_HeightFromFeet: 0
    m_Mirror: 0
  m_EditorCurves:
  - curve:
      serializedVersion: 2
      m_Curve:
      - serializedVersion: 2
        time: 0
        value: 74.34
        inSlope: 0
        outSlope: 0
        tangentMode: 69
      - serializedVersion: 2
        time: 1
        value: 74.34
        inSlope: -0
        outSlope: 0
        tangentMode: 69
      - serializedVersion: 2
        time: 1.5
        value: 74.34
        inSlope: -0
        outSlope: 0
        tangentMode: 69
      - serializedVersion: 2
        time: 4.2166667
        value: 74.34
        inSlope: -0
        outSlope: 0
        tangentMode: 69
      - serializedVersion: 2
        time: 4.9333334
        value: 74.34
        inSlope: 0
        outSlope: 0
        tangentMode: 136
      - serializedVersion: 2
        time: 5.4333334
        value: 74.34
        inSlope: 0
        outSlope: 0
        tangentMode: 136
      - serializedVersion: 2
        time: 5.9333334
        value: 74.34
        inSlope: 0
        outSlope: 0
        tangentMode: 136
      - serializedVersion: 2
        time: 6.4333334
        value: 74.34
        inSlope: 0
        outSlope: 0
        tangentMode: 136
      - serializedVersion: 2
        time: 6.9333334
        value: 74.34
        inSlope: 0
        outSlope: 0
        tangentMode: 136
      m_PreInfinity: 2
      m_PostInfinity: 2
      m_RotationOrder: 4
    attribute: m_LocalPosition.x
    path: 
    classID: 4
    script: {fileID: 0}
  - curve:
      serializedVersion: 2
      m_Curve:
      - serializedVersion: 2
        time: 0
        value: 6.25
        inSlope: 0
        outSlope: 2.4799995
        tangentMode: 69
      - serializedVersion: 2
        time: 1
        value: 8.73
        inSlope: 2.4799995
        outSlope: 0
        tangentMode: 69
      - serializedVersion: 2
        time: 1.5
        value: 8.73
        inSlope: -0
        outSlope: 0
        tangentMode: 69
      - serializedVersion: 2
        time: 4.2166667
        value: 8.73
        inSlope: -0
        outSlope: -3.4604642
        tangentMode: 69
      - serializedVersion: 2
        time: 4.9333334
        value: 6.25
        inSlope: -0.2958909
        outSlope: -0.2958909
        tangentMode: 136
      - serializedVersion: 2
        time: 5.4333334
        value: 6.16
        inSlope: 0
        outSlope: 0
        tangentMode: 136
      - serializedVersion: 2
        time: 5.9333334
        value: 6.25
        inSlope: 0
        outSlope: 0
        tangentMode: 136
      - serializedVersion: 2
        time: 6.4333334
        value: 6.16
        inSlope: 0
        outSlope: 0
        tangentMode: 136
      - serializedVersion: 2
        time: 6.9333334
        value: 6.25
        inSlope: 0
        outSlope: 0
        tangentMode: 136
      m_PreInfinity: 2
      m_PostInfinity: 2
      m_RotationOrder: 4
    attribute: m_LocalPosition.y
    path: 
    classID: 4
    script: {fileID: 0}
  - curve:
      serializedVersion: 2
      m_Curve:
      - serializedVersion: 2
        time: 0
        value: 7.5273438
        inSlope: 0
        outSlope: 0
        tangentMode: 69
      - serializedVersion: 2
        time: 1
        value: 7.5273438
        inSlope: -0
        outSlope: 0
        tangentMode: 69
      - serializedVersion: 2
        time: 1.5
        value: 7.5273438
        inSlope: -0
        outSlope: 0
        tangentMode: 69
      - serializedVersion: 2
        time: 4.2166667
        value: 7.5273438
        inSlope: -0
        outSlope: 0
        tangentMode: 69
      - serializedVersion: 2
        time: 4.9333334
        value: 7.5273438
        inSlope: 0
        outSlope: 0
        tangentMode: 136
      - serializedVersion: 2
        time: 5.4333334
        value: 7.5273438
        inSlope: 0
        outSlope: 0
        tangentMode: 136
      - serializedVersion: 2
        time: 5.9333334
        value: 7.5273438
        inSlope: 0
        outSlope: 0
        tangentMode: 136
      - serializedVersion: 2
        time: 6.4333334
        value: 7.5273438
        inSlope: 0
        outSlope: 0
        tangentMode: 136
      - serializedVersion: 2
        time: 6.9333334
        value: 7.5273438
        inSlope: 0
        outSlope: 0
        tangentMode: 136
      m_PreInfinity: 2
      m_PostInfinity: 2
      m_RotationOrder: 4
    attribute: m_LocalPosition.z
    path: 
    classID: 4
    script: {fileID: 0}
  - curve:
      serializedVersion: 2
      m_Curve:
      - serializedVersion: 2
        time: 0
        value: 0
        inSlope: 0
        outSlope: 0
        tangentMode: 69
      - serializedVersion: 2
        time: 1
        value: 0
        inSlope: -0
        outSlope: 0
        tangentMode: 5
      - serializedVersion: 2
        time: 1.5
        value: 0
        inSlope: -0
        outSlope: 0
        tangentMode: 5
      - serializedVersion: 2
        time: 4.9333334
        value: 0
        inSlope: 0
        outSlope: 0
        tangentMode: 136
      - serializedVersion: 2
        time: 5.9333334
        value: 0
        inSlope: 0
        outSlope: 0
        tangentMode: 136
      - serializedVersion: 2
        time: 6.9333334
        value: 0
        inSlope: 0
        outSlope: 0
        tangentMode: 136
      m_PreInfinity: 2
      m_PostInfinity: 2
      m_RotationOrder: 4
    attribute: localEulerAnglesRaw.x
    path: 
    classID: 4
    script: {fileID: 0}
  - curve:
      serializedVersion: 2
      m_Curve:
      - serializedVersion: 2
        time: 0
        value: 0
        inSlope: 0
        outSlope: 0
        tangentMode: 69
      - serializedVersion: 2
        time: 1
        value: 0
        inSlope: -0
        outSlope: 0
        tangentMode: 5
      - serializedVersion: 2
        time: 1.5
        value: 0
        inSlope: -0
        outSlope: 0
        tangentMode: 5
      - serializedVersion: 2
        time: 4.9333334
        value: 0
        inSlope: 0
        outSlope: 0
        tangentMode: 136
      - serializedVersion: 2
        time: 5.9333334
        value: 0
        inSlope: 0
        outSlope: 0
        tangentMode: 136
      - serializedVersion: 2
        time: 6.9333334
        value: 0
        inSlope: 0
        outSlope: 0
        tangentMode: 136
      m_PreInfinity: 2
      m_PostInfinity: 2
      m_RotationOrder: 4
    attribute: localEulerAnglesRaw.y
    path: 
    classID: 4
    script: {fileID: 0}
  - curve:
      serializedVersion: 2
      m_Curve:
      - serializedVersion: 2
        time: 0
        value: 0
        inSlope: 0
        outSlope: 0
        tangentMode: 69
      - serializedVersion: 2
        time: 1
        value: 0
        inSlope: -0
        outSlope: 0
        tangentMode: 5
      - serializedVersion: 2
        time: 1.5
        value: 0
        inSlope: -0
        outSlope: 0
        tangentMode: 5
      - serializedVersion: 2
        time: 4.9333334
        value: 0
        inSlope: 0
        outSlope: 0
        tangentMode: 136
      - serializedVersion: 2
        time: 5.9333334
        value: 0
        inSlope: 0
        outSlope: 0
        tangentMode: 136
      - serializedVersion: 2
        time: 6.9333334
        value: 0
        inSlope: 0
        outSlope: 0
        tangentMode: 136
      m_PreInfinity: 2
      m_PostInfinity: 2
      m_RotationOrder: 4
    attribute: localEulerAnglesRaw.z
    path: 
    classID: 4
    script: {fileID: 0}
  - curve:
      serializedVersion: 2
      m_Curve:
      - serializedVersion: 2
        time: 0
        value: 0.5094788
        inSlope: 0
        outSlope: 0
        tangentMode: 69
      - serializedVersion: 2
        time: 1
        value: 0.5094788
        inSlope: -0
        outSlope: 0
        tangentMode: 5
      - serializedVersion: 2
        time: 1.5
        value: 0.5094788
        inSlope: -0
        outSlope: 0
        tangentMode: 5
      - serializedVersion: 2
        time: 4.9333334
        value: 0.5094788
        inSlope: 0
        outSlope: 0
        tangentMode: 136
      - serializedVersion: 2
        time: 5.9333334
        value: 0.5094788
        inSlope: 0
        outSlope: 0
        tangentMode: 136
      - serializedVersion: 2
        time: 6.9333334
        value: 0.5094788
        inSlope: 0
        outSlope: 0
        tangentMode: 136
      m_PreInfinity: 2
      m_PostInfinity: 2
      m_RotationOrder: 4
    attribute: m_LocalScale.x
    path: 
    classID: 4
    script: {fileID: 0}
  - curve:
      serializedVersion: 2
      m_Curve:
      - serializedVersion: 2
        time: 0
        value: 0.5094787
        inSlope: 0
        outSlope: 0.000000059604645
        tangentMode: 69
      - serializedVersion: 2
        time: 1
        value: 0.50947875
        inSlope: 0.000000059604645
        outSlope: 0
        tangentMode: 5
      - serializedVersion: 2
        time: 1.5
        value: 0.50947875
        inSlope: -0
        outSlope: 0
        tangentMode: 5
      - serializedVersion: 2
        time: 4.9333334
        value: 0.5094787
        inSlope: 0
        outSlope: 0
        tangentMode: 136
      - serializedVersion: 2
        time: 5.9333334
        value: 0.5094787
        inSlope: 0
        outSlope: 0
        tangentMode: 136
      - serializedVersion: 2
        time: 6.9333334
        value: 0.5094787
        inSlope: 0
        outSlope: 0
        tangentMode: 136
      m_PreInfinity: 2
      m_PostInfinity: 2
      m_RotationOrder: 4
    attribute: m_LocalScale.y
    path: 
    classID: 4
    script: {fileID: 0}
  - curve:
      serializedVersion: 2
      m_Curve:
      - serializedVersion: 2
        time: 0
        value: 0.50947875
        inSlope: 0
        outSlope: -0.000000059604645
        tangentMode: 69
      - serializedVersion: 2
        time: 1
        value: 0.5094787
        inSlope: -0.000000059604645
        outSlope: 0
        tangentMode: 5
      - serializedVersion: 2
        time: 1.5
        value: 0.5094787
        inSlope: -0
        outSlope: 0
        tangentMode: 5
      - serializedVersion: 2
        time: 4.9333334
        value: 0.50947875
        inSlope: 0
        outSlope: 0
        tangentMode: 136
      - serializedVersion: 2
        time: 5.9333334
        value: 0.50947875
        inSlope: 0
        outSlope: 0
        tangentMode: 136
      - serializedVersion: 2
        time: 6.9333334
        value: 0.50947875
        inSlope: 0
        outSlope: 0
        tangentMode: 136
      m_PreInfinity: 2
      m_PostInfinity: 2
      m_RotationOrder: 4
    attribute: m_LocalScale.z
    path: 
    classID: 4
    script: {fileID: 0}
  - curve:
      serializedVersion: 2
      m_Curve:
      - serializedVersion: 2
        time: 0
        value: -1.786131
        inSlope: 0
        outSlope: 0
        tangentMode: 69
      - serializedVersion: 2
        time: 0.016666668
        value: -1.786131
        inSlope: -0
        outSlope: -0.00000036368934
        tangentMode: 69
      - serializedVersion: 2
        time: 1
        value: -1.7861314
        inSlope: -0.00000036368934
        outSlope: 0
        tangentMode: 69
      - serializedVersion: 2
        time: 1.5
        value: -1.7861314
        inSlope: -0
        outSlope: -9.5004225
        tangentMode: 69
      - serializedVersion: 2
        time: 2.7666667
        value: -13.82
        inSlope: -9.5004225
        outSlope: 0
        tangentMode: 69
      m_PreInfinity: 2
      m_PostInfinity: 2
      m_RotationOrder: 4
    attribute: m_LocalPosition.x
    path: SLJ
    classID: 4
    script: {fileID: 0}
  - curve:
      serializedVersion: 2
      m_Curve:
      - serializedVersion: 2
        time: 0
        value: -2.47
        inSlope: 0
        outSlope: 48.600002
        tangentMode: 69
      - serializedVersion: 2
        time: 0.016666668
        value: -1.66
        inSlope: 48.600002
        outSlope: -2.877966
        tangentMode: 69
      - serializedVersion: 2
        time: 1
        value: -4.49
        inSlope: -2.877966
        outSlope: 0
        tangentMode: 69
      - serializedVersion: 2
        time: 1.5
        value: -4.49
        inSlope: -0
        outSlope: -4.1526318
        tangentMode: 69
      - serializedVersion: 2
        time: 2.7666667
        value: -9.75
        inSlope: -4.1526318
        outSlope: 0
        tangentMode: 69
      m_PreInfinity: 2
      m_PostInfinity: 2
      m_RotationOrder: 4
    attribute: m_LocalPosition.y
    path: SLJ
    classID: 4
    script: {fileID: 0}
  - curve:
      serializedVersion: 2
      m_Curve:
      - serializedVersion: 2
        time: 0
        value: 7.114441
        inSlope: 0
        outSlope: 0
        tangentMode: 69
      - serializedVersion: 2
        time: 0.016666668
        value: 7.114441
        inSlope: -0
        outSlope: 0.00000048491916
        tangentMode: 69
      - serializedVersion: 2
        time: 1
        value: 7.1144414
        inSlope: 0.00000048491916
        outSlope: 0
        tangentMode: 69
      - serializedVersion: 2
        time: 1.5
        value: 7.1144414
        inSlope: -0
        outSlope: 0
        tangentMode: 69
      - serializedVersion: 2
        time: 2.7666667
        value: 7.1144414
        inSlope: -0
        outSlope: 0
        tangentMode: 69
      m_PreInfinity: 2
      m_PostInfinity: 2
      m_RotationOrder: 4
    attribute: m_LocalPosition.z
    path: SLJ
    classID: 4
    script: {fileID: 0}
  - curve:
      serializedVersion: 2
      m_Curve:
      - serializedVersion: 2
        time: 0
        value: 0
        inSlope: Infinity
        outSlope: 59.999996
        tangentMode: 69
      - serializedVersion: 2
        time: 0.016666668
        value: 1
        inSlope: 59.999996
        outSlope: 0
        tangentMode: 69
      - serializedVersion: 2
        time: 1
        value: 1
        inSlope: -0
        outSlope: 0
        tangentMode: 69
      - serializedVersion: 2
        time: 1.5
        value: 1
        inSlope: -0
        outSlope: -0.36809817
        tangentMode: 69
      - serializedVersion: 2
        time: 4.2166667
        value: 0
        inSlope: Infinity
        outSlope: Infinity
        tangentMode: 103
      m_PreInfinity: 2
      m_PostInfinity: 2
      m_RotationOrder: 4
    attribute: m_IsActive
    path: SLJ
    classID: 1
    script: {fileID: 0}
  - curve:
      serializedVersion: 2
      m_Curve:
      - serializedVersion: 2
        time: 0
        value: 0
        inSlope: Infinity
        outSlope: 59.999996
        tangentMode: 69
      - serializedVersion: 2
        time: 0.016666668
        value: 1
        inSlope: 59.999996
        outSlope: 0
        tangentMode: 69
      - serializedVersion: 2
        time: 1
        value: 1
        inSlope: Infinity
        outSlope: Infinity
        tangentMode: 103
      - serializedVersion: 2
        time: 1.5
        value: 1
        inSlope: Infinity
        outSlope: Infinity
        tangentMode: 103
      - serializedVersion: 2
        time: 4.2166667
        value: 0
        inSlope: Infinity
        outSlope: Infinity
        tangentMode: 103
      m_PreInfinity: 2
      m_PostInfinity: 2
      m_RotationOrder: 4
    attribute: m_IsActive
    path: SLJ (1)
    classID: 1
    script: {fileID: 0}
  - curve:
      serializedVersion: 2
      m_Curve:
      - serializedVersion: 2
        time: 0
        value: 0
        inSlope: Infinity
        outSlope: 59.999996
        tangentMode: 69
      - serializedVersion: 2
        time: 0.016666668
        value: 1
        inSlope: 59.999996
        outSlope: 0
        tangentMode: 69
      - serializedVersion: 2
        time: 1
        value: 1
        inSlope: Infinity
        outSlope: Infinity
        tangentMode: 103
      - serializedVersion: 2
        time: 1.5
        value: 1
        inSlope: Infinity
        outSlope: Infinity
        tangentMode: 103
      - serializedVersion: 2
        time: 4.6
        value: 0
        inSlope: Infinity
        outSlope: Infinity
        tangentMode: 103
      m_PreInfinity: 2
      m_PostInfinity: 2
      m_RotationOrder: 4
    attribute: m_IsActive
    path: SLJ (2)
    classID: 1
    script: {fileID: 0}
  - curve:
      serializedVersion: 2
      m_Curve:
      - serializedVersion: 2
        time: 0
        value: 1.85
        inSlope: 0
        outSlope: 0
        tangentMode: 69
      - serializedVersion: 2
        time: 0.016666668
        value: 1.85
        inSlope: -0
        outSlope: 0
        tangentMode: 69
      - serializedVersion: 2
        time: 1
        value: 1.85
        inSlope: -0
        outSlope: 0
        tangentMode: 69
      - serializedVersion: 2
        time: 1.5
        value: 1.85
        inSlope: -0
        outSlope: -0.02307697
        tangentMode: 69
      - serializedVersion: 2
        time: 3.2333333
        value: 1.81
        inSlope: -0.051613007
        outSlope: -0.051613007
        tangentMode: 136
      - serializedVersion: 2
        time: 4.6
        value: -15.15
        inSlope: 0
        outSlope: 0
        tangentMode: 136
      m_PreInfinity: 2
      m_PostInfinity: 2
      m_RotationOrder: 4
    attribute: m_LocalPosition.x
    path: SLJ (2)
    classID: 4
    script: {fileID: 0}
  - curve:
      serializedVersion: 2
      m_Curve:
      - serializedVersion: 2
        time: 0
        value: -4.53
        inSlope: 0
        outSlope: 172.20001
        tangentMode: 69
      - serializedVersion: 2
        time: 0.016666668
        value: -1.66
        inSlope: 172.20001
        outSlope: -2.877966
        tangentMode: 69
      - serializedVersion: 2
        time: 1
        value: -4.49
        inSlope: -2.877966
        outSlope: 0
        tangentMode: 69
      - serializedVersion: 2
        time: 1.5
        value: -4.49
        inSlope: -0
        outSlope: 0
        tangentMode: 69
      - serializedVersion: 2
        time: 3.2333333
        value: -4.49
        inSlope: 0
        outSlope: 0
        tangentMode: 136
      - serializedVersion: 2
        time: 4.6
        value: -9.9
        inSlope: 0
        outSlope: 0
        tangentMode: 136
      m_PreInfinity: 2
      m_PostInfinity: 2
      m_RotationOrder: 4
    attribute: m_LocalPosition.y
    path: SLJ (2)
    classID: 4
    script: {fileID: 0}
  - curve:
      serializedVersion: 2
      m_Curve:
      - serializedVersion: 2
        time: 0
        value: 7.114441
        inSlope: 0
        outSlope: 0.000028610228
        tangentMode: 69
      - serializedVersion: 2
        time: 0.016666668
        value: 7.1144414
        inSlope: 0.000028610228
        outSlope: 0
        tangentMode: 69
      - serializedVersion: 2
        time: 1
        value: 7.1144414
        inSlope: -0
        outSlope: 0
        tangentMode: 69
      - serializedVersion: 2
        time: 1.5
        value: 7.1144414
        inSlope: -0
        outSlope: 0
        tangentMode: 69
      - serializedVersion: 2
        time: 3.2333333
        value: 7.1144414
        inSlope: 0
        outSlope: 0
        tangentMode: 136
      - serializedVersion: 2
        time: 4.6
        value: 7.1144414
        inSlope: 0
        outSlope: 0
        tangentMode: 136
      m_PreInfinity: 2
      m_PostInfinity: 2
      m_RotationOrder: 4
    attribute: m_LocalPosition.z
    path: SLJ (2)
    classID: 4
    script: {fileID: 0}
  - curve:
      serializedVersion: 2
      m_Curve:
      - serializedVersion: 2
        time: 0
        value: 0.05
        inSlope: 0
        outSlope: 0
        tangentMode: 69
      - serializedVersion: 2
        time: 0.016666668
        value: 0.05
        inSlope: -0
        outSlope: 0
        tangentMode: 69
      - serializedVersion: 2
        time: 1
        value: 0.05
        inSlope: -0
        outSlope: 0
        tangentMode: 69
      - serializedVersion: 2
        time: 1.5
        value: 0.05
        inSlope: -0
        outSlope: -0.04
        tangentMode: 69
      - serializedVersion: 2
        time: 2.5
        value: 0.01
        inSlope: -0.07933884
        outSlope: -0.07933884
        tangentMode: 136
      - serializedVersion: 2
        time: 3.5166667
        value: -14.12
        inSlope: 0
        outSlope: 0
        tangentMode: 136
      m_PreInfinity: 2
      m_PostInfinity: 2
      m_RotationOrder: 4
    attribute: m_LocalPosition.x
    path: SLJ (1)
    classID: 4
    script: {fileID: 0}
  - curve:
      serializedVersion: 2
      m_Curve:
      - serializedVersion: 2
        time: 0
        value: -4.53
        inSlope: 0
        outSlope: 172.20001
        tangentMode: 69
      - serializedVersion: 2
        time: 0.016666668
        value: -1.66
        inSlope: 172.20001
        outSlope: -2.877966
        tangentMode: 69
      - serializedVersion: 2
        time: 1
        value: -4.49
        inSlope: -2.877966
        outSlope: 0
        tangentMode: 69
      - serializedVersion: 2
        time: 1.5
        value: -4.49
        inSlope: -0
        outSlope: 0
        tangentMode: 69
      - serializedVersion: 2
        time: 2.5
        value: -4.49
        inSlope: 0
        outSlope: 0
        tangentMode: 136
      - serializedVersion: 2
        time: 3.5166667
        value: -5
        inSlope: 0
        outSlope: 0
        tangentMode: 136
      m_PreInfinity: 2
      m_PostInfinity: 2
      m_RotationOrder: 4
    attribute: m_LocalPosition.y
    path: SLJ (1)
    classID: 4
    script: {fileID: 0}
  - curve:
      serializedVersion: 2
      m_Curve:
      - serializedVersion: 2
        time: 0
        value: 7.114441
        inSlope: 0
        outSlope: 0.000028610228
        tangentMode: 69
      - serializedVersion: 2
        time: 0.016666668
        value: 7.1144414
        inSlope: 0.000028610228
        outSlope: 0
        tangentMode: 69
      - serializedVersion: 2
        time: 1
        value: 7.1144414
        inSlope: -0
        outSlope: 0
        tangentMode: 69
      - serializedVersion: 2
        time: 1.5
        value: 7.1144414
        inSlope: -0
        outSlope: 0
        tangentMode: 69
      - serializedVersion: 2
        time: 2.5
        value: 7.1144414
        inSlope: 0
        outSlope: 0
        tangentMode: 136
      - serializedVersion: 2
        time: 3.5166667
        value: 7.1144414
        inSlope: 0
        outSlope: 0
        tangentMode: 136
      m_PreInfinity: 2
      m_PostInfinity: 2
      m_RotationOrder: 4
    attribute: m_LocalPosition.z
    path: SLJ (1)
    classID: 4
    script: {fileID: 0}
  - curve:
      serializedVersion: 2
      m_Curve:
      - serializedVersion: 2
        time: 0
        value: 1
        inSlope: Infinity
        outSlope: Infinity
        tangentMode: 103
      m_PreInfinity: 2
      m_PostInfinity: 2
      m_RotationOrder: 4
    attribute: m_IsActive
    path: red/4
    classID: 1
    script: {fileID: 0}
  - curve:
      serializedVersion: 2
      m_Curve:
      - serializedVersion: 2
        time: 0
        value: 0
        inSlope: Infinity
        outSlope: Infinity
        tangentMode: 103
      m_PreInfinity: 2
      m_PostInfinity: 2
      m_RotationOrder: 4
    attribute: m_IsActive
    path: red/8
    classID: 1
    script: {fileID: 0}
  - curve:
      serializedVersion: 2
      m_Curve:
      - serializedVersion: 2
        time: 0
        value: 1
        inSlope: Infinity
        outSlope: Infinity
        tangentMode: 103
      m_PreInfinity: 2
      m_PostInfinity: 2
      m_RotationOrder: 4
    attribute: m_IsActive
    path: red
    classID: 1
    script: {fileID: 0}
  - curve:
      serializedVersion: 2
      m_Curve:
      - serializedVersion: 2
        time: 0
        value: 0
        inSlope: Infinity
        outSlope: Infinity
        tangentMode: 103
      m_PreInfinity: 2
      m_PostInfinity: 2
      m_RotationOrder: 4
    attribute: m_IsActive
    path: red/1
    classID: 1
    script: {fileID: 0}
  - curve:
      serializedVersion: 2
      m_Curve:
      - serializedVersion: 2
        time: 0
        value: 0
        inSlope: Infinity
        outSlope: Infinity
        tangentMode: 103
      m_PreInfinity: 2
      m_PostInfinity: 2
      m_RotationOrder: 4
    attribute: m_IsActive
    path: red/3
    classID: 1
    script: {fileID: 0}
  - curve:
      serializedVersion: 2
      m_Curve:
      - serializedVersion: 2
        time: 0
        value: 0
        inSlope: Infinity
        outSlope: Infinity
        tangentMode: 103
      m_PreInfinity: 2
      m_PostInfinity: 2
      m_RotationOrder: 4
    attribute: m_IsActive
    path: red/5
    classID: 1
    script: {fileID: 0}
  - curve:
      serializedVersion: 2
      m_Curve:
      - serializedVersion: 2
        time: 0
        value: 0
        inSlope: Infinity
        outSlope: Infinity
        tangentMode: 103
      m_PreInfinity: 2
      m_PostInfinity: 2
      m_RotationOrder: 4
    attribute: m_IsActive
    path: red/6
    classID: 1
    script: {fileID: 0}
  - curve:
      serializedVersion: 2
      m_Curve:
      - serializedVersion: 2
        time: 0
        value: 0
        inSlope: Infinity
        outSlope: Infinity
        tangentMode: 103
      m_PreInfinity: 2
      m_PostInfinity: 2
      m_RotationOrder: 4
    attribute: m_IsActive
    path: red/7
    classID: 1
    script: {fileID: 0}
  - curve:
      serializedVersion: 2
      m_Curve:
      - serializedVersion: 2
        time: 0
        value: 0
        inSlope: Infinity
        outSlope: Infinity
        tangentMode: 103
      m_PreInfinity: 2
      m_PostInfinity: 2
      m_RotationOrder: 4
    attribute: m_IsActive
    path: red/2
    classID: 1
    script: {fileID: 0}
  - curve:
      serializedVersion: 2
      m_Curve:
      - serializedVersion: 2
        time: 0
        value: 0
        inSlope: Infinity
        outSlope: Infinity
        tangentMode: 103
      - serializedVersion: 2
        time: 0.13333334
        value: 1
        inSlope: Infinity
        outSlope: Infinity
        tangentMode: 103
      - serializedVersion: 2
        time: 5
        value: 0
        inSlope: Infinity
        outSlope: Infinity
        tangentMode: 103
      m_PreInfinity: 2
      m_PostInfinity: 2
      m_RotationOrder: 4
    attribute: m_IsActive
    path: audioG/05/soso2_co
    classID: 1
    script: {fileID: 0}
  - curve:
      serializedVersion: 2
      m_Curve:
      - serializedVersion: 2
        time: 0
        value: 0
        inSlope: Infinity
        outSlope: Infinity
        tangentMode: 103
      - serializedVersion: 2
        time: 1.6333333
        value: 1
        inSlope: Infinity
        outSlope: Infinity
        tangentMode: 103
      - serializedVersion: 2
        time: 5
        value: 0
        inSlope: Infinity
        outSlope: Infinity
        tangentMode: 103
      m_PreInfinity: 2
      m_PostInfinity: 2
      m_RotationOrder: 4
    attribute: m_IsActive
    path: audioG/05/soso2_co (1)
    classID: 1
    script: {fileID: 0}
  - curve:
      serializedVersion: 2
      m_Curve:
      - serializedVersion: 2
        time: 0
        value: 0
        inSlope: Infinity
        outSlope: Infinity
        tangentMode: 103
      - serializedVersion: 2
        time: 2.7333333
        value: 1
        inSlope: Infinity
        outSlope: Infinity
        tangentMode: 103
      - serializedVersion: 2
        time: 5
        value: 0
        inSlope: Infinity
        outSlope: Infinity
        tangentMode: 103
      m_PreInfinity: 2
      m_PostInfinity: 2
      m_RotationOrder: 4
    attribute: m_IsActive
    path: audioG/05/soso2_co (2)
    classID: 1
    script: {fileID: 0}
  - curve:
      serializedVersion: 2
      m_Curve:
      - serializedVersion: 2
        time: 0
        value: 0
        inSlope: Infinity
        outSlope: Infinity
        tangentMode: 103
      - serializedVersion: 2
        time: 3.5333333
        value: 1
        inSlope: Infinity
        outSlope: Infinity
        tangentMode: 103
      - serializedVersion: 2
        time: 5
        value: 0
        inSlope: Infinity
        outSlope: Infinity
        tangentMode: 103
      m_PreInfinity: 2
      m_PostInfinity: 2
      m_RotationOrder: 4
    attribute: m_IsActive
    path: audioG/05/soso2_co (3)
    classID: 1
    script: {fileID: 0}
  m_EulerEditorCurves:
  - curve:
      serializedVersion: 2
      m_Curve: []
      m_PreInfinity: 2
      m_PostInfinity: 2
      m_RotationOrder: 4
    attribute: m_LocalEulerAngles.x
    path: 
    classID: 4
    script: {fileID: 0}
  - curve:
      serializedVersion: 2
      m_Curve: []
      m_PreInfinity: 2
      m_PostInfinity: 2
      m_RotationOrder: 4
    attribute: m_LocalEulerAngles.y
    path: 
    classID: 4
    script: {fileID: 0}
  - curve:
      serializedVersion: 2
      m_Curve: []
      m_PreInfinity: 2
      m_PostInfinity: 2
      m_RotationOrder: 4
    attribute: m_LocalEulerAngles.z
    path: 
    classID: 4
    script: {fileID: 0}
  m_HasGenericRootTransform: 1
  m_HasMotionFloatCurves: 0
  m_GenerateMotionCurves: 0
  m_Events: []
