%YAML 1.1
%TAG !u! tag:unity3d.com,2011:
--- !u!74 &7400000
AnimationClip:
  m_ObjectHideFlags: 0
  m_PrefabParentObject: {fileID: 0}
  m_PrefabInternal: {fileID: 0}
  m_Name: DQguaiLost
  serializedVersion: 6
  m_Legacy: 0
  m_Compressed: 0
  m_UseHighQualityCurve: 1
  m_RotationCurves: []
  m_CompressedRotationCurves: []
  m_EulerCurves:
  - curve:
      serializedVersion: 2
      m_Curve:
      - serializedVersion: 2
        time: 0
        value: {x: 0, y: 0, z: -2.4580002}
        inSlope: {x: 0, y: 0, z: 0}
        outSlope: {x: 0, y: 0, z: 19.27091}
        tangentMode: 0
      - serializedVersion: 2
        time: 0.18333334
        value: {x: 0, y: 0, z: 1.075}
        inSlope: {x: -0, y: -0, z: 19.27091}
        outSlope: {x: -32.749092, y: -81.84546, z: 0.6709092}
        tangentMode: 0
      - serializedVersion: 2
        time: 0.36666667
        value: {x: -6.004, y: -15.005001, z: 1.1980001}
        inSlope: {x: -32.749092, y: -81.84546, z: 0.6709092}
        outSlope: {x: -51.997505, y: 134.29503, z: -31.470003}
        tangentMode: 0
      - serializedVersion: 2
        time: 0.5
        value: {x: -12.937, y: 2.901, z: -2.9980001}
        inSlope: {x: -51.997505, y: 134.29503, z: -31.470003}
        outSlope: {x: 61.117504, y: 1.9575013, z: 35.932507}
        tangentMode: 0
      - serializedVersion: 2
        time: 0.6333333
        value: {x: -4.788, y: 3.1620002, z: 1.7930001}
        inSlope: {x: 61.117504, y: 1.9575013, z: 35.932507}
        outSlope: {x: 0, y: 0, z: -25.177504}
        tangentMode: 0
      - serializedVersion: 2
        time: 0.76666665
        value: {x: -4.788, y: 3.1620002, z: -1.5640001}
        inSlope: {x: -0, y: -0, z: -25.177504}
        outSlope: {x: 35.910004, y: -23.715002, z: -6.705001}
        tangentMode: 0
      - serializedVersion: 2
        time: 0.9
        value: {x: 0, y: 0, z: -2.4580002}
        inSlope: {x: 35.910004, y: -23.715002, z: -6.705001}
        outSlope: {x: 0, y: 0, z: 30.282858}
        tangentMode: 0
      - serializedVersion: 2
        time: 1.0166667
        value: {x: 0, y: 0, z: 1.075}
        inSlope: {x: -0, y: -0, z: 30.282858}
        outSlope: {x: -110.888565, y: 24.865713, z: -34.911427}
        tangentMode: 0
      - serializedVersion: 2
        time: 1.1333333
        value: {x: -12.937, y: 2.901, z: -2.9980001}
        inSlope: {x: -110.888565, y: 24.865713, z: -34.911427}
        outSlope: {x: 61.117504, y: 1.9575013, z: 35.932507}
        tangentMode: 0
      - serializedVersion: 2
        time: 1.2666667
        value: {x: -4.788, y: 3.1620002, z: 1.7930001}
        inSlope: {x: 61.117504, y: 1.9575013, z: 35.932507}
        outSlope: {x: 0, y: 0, z: -50.35496}
        tangentMode: 0
      - serializedVersion: 2
        time: 1.3333334
        value: {x: -4.788, y: 3.1620002, z: -1.5640001}
        inSlope: {x: -0, y: -0, z: -50.35496}
        outSlope: {x: 71.82007, y: -47.430046, z: -13.410013}
        tangentMode: 0
      - serializedVersion: 2
        time: 1.4
        value: {x: 0, y: 0, z: -2.4580002}
        inSlope: {x: 71.82007, y: -47.430046, z: -13.410013}
        outSlope: {x: 0, y: 0, z: 42.39598}
        tangentMode: 0
      - serializedVersion: 2
        time: 1.4833333
        value: {x: 0, y: 0, z: 1.075}
        inSlope: {x: -0, y: -0, z: 42.39598}
        outSlope: {x: -155.24393, y: 34.811985, z: -48.875977}
        tangentMode: 0
      - serializedVersion: 2
        time: 1.5666667
        value: {x: -12.937, y: 2.901, z: -2.9980001}
        inSlope: {x: -155.24393, y: 34.811985, z: -48.875977}
        outSlope: {x: 81.49008, y: 2.610004, z: 47.91005}
        tangentMode: 0
      - serializedVersion: 2
        time: 1.6666666
        value: {x: -4.788, y: 3.1620002, z: 1.7930001}
        inSlope: {x: 81.49008, y: 2.610004, z: 47.91005}
        outSlope: {x: 0, y: 0, z: -50.35496}
        tangentMode: 0
      - serializedVersion: 2
        time: 1.7333333
        value: {x: -4.788, y: 3.1620002, z: -1.5640001}
        inSlope: {x: -0, y: -0, z: -50.35496}
        outSlope: {x: -122.23512, y: -3.9150062, z: -21.510021}
        tangentMode: 0
      - serializedVersion: 2
        time: 1.8
        value: {x: -12.937, y: 2.901, z: -2.9980001}
        inSlope: {x: -122.23512, y: -3.9150062, z: -21.510021}
        outSlope: {x: 97.78796, y: 3.1320004, z: 57.491978}
        tangentMode: 0
      - serializedVersion: 2
        time: 1.8833333
        value: {x: -4.788, y: 3.1620002, z: 1.7930001}
        inSlope: {x: 97.78796, y: 3.1320004, z: 57.491978}
        outSlope: {x: 0, y: 0, z: -40.283985}
        tangentMode: 0
      - serializedVersion: 2
        time: 1.9666667
        value: {x: -4.788, y: 3.1620002, z: -1.5640001}
        inSlope: {x: -0, y: -0, z: -40.283985}
        outSlope: {x: 57.456055, y: -37.94404, z: -10.728011}
        tangentMode: 0
      - serializedVersion: 2
        time: 2.05
        value: {x: 0, y: 0, z: -2.4580002}
        inSlope: {x: 57.456055, y: -37.94404, z: -10.728011}
        outSlope: {x: 0, y: 0, z: 35.329952}
        tangentMode: 0
      - serializedVersion: 2
        time: 2.15
        value: {x: 0, y: 0, z: 1.075}
        inSlope: {x: -0, y: -0, z: 35.329952}
        outSlope: {x: -129.37013, y: 29.010029, z: -40.730038}
        tangentMode: 0
      - serializedVersion: 2
        time: 2.25
        value: {x: -12.937, y: 2.901, z: -2.9980001}
        inSlope: {x: -129.37013, y: 29.010029, z: -40.730038}
        outSlope: {x: 81.49008, y: 2.610004, z: 47.91005}
        tangentMode: 0
      - serializedVersion: 2
        time: 2.35
        value: {x: -4.788, y: 3.1620002, z: 1.7930001}
        inSlope: {x: 81.49008, y: 2.610004, z: 47.91005}
        outSlope: {x: 0, y: 0, z: -40.283928}
        tangentMode: 0
      - serializedVersion: 2
        time: 2.4333334
        value: {x: -4.788, y: 3.1620002, z: -1.5640001}
        inSlope: {x: -0, y: -0, z: -40.283928}
        outSlope: {x: -97.78809, y: -3.132005, z: -17.208017}
        tangentMode: 0
      - serializedVersion: 2
        time: 2.5166667
        value: {x: -12.937, y: 2.901, z: -2.9980001}
        inSlope: {x: -97.78809, y: -3.132005, z: -17.208017}
        outSlope: {x: 162.98016, y: 5.220008, z: 95.8201}
        tangentMode: 0
      - serializedVersion: 2
        time: 2.5666666
        value: {x: -4.788, y: 3.1620002, z: 1.7930001}
        inSlope: {x: 162.98016, y: 5.220008, z: 95.8201}
        outSlope: {x: 0, y: 0, z: -67.14007}
        tangentMode: 0
      - serializedVersion: 2
        time: 2.6166666
        value: {x: -4.788, y: 3.1620002, z: -1.5640001}
        inSlope: {x: -0, y: -0, z: -67.14007}
        outSlope: {x: 95.759636, y: -63.23976, z: -17.879932}
        tangentMode: 0
      - serializedVersion: 2
        time: 2.6666667
        value: {x: 0, y: 0, z: -2.4580002}
        inSlope: {x: 95.759636, y: -63.23976, z: -17.879932}
        outSlope: {x: 0, y: 0, z: 70.66007}
        tangentMode: 0
      - serializedVersion: 2
        time: 2.7166667
        value: {x: 0, y: 0, z: 1.075}
        inSlope: {x: -0, y: -0, z: 70.66007}
        outSlope: {x: -194.05519, y: 43.51504, z: -61.09506}
        tangentMode: 0
      - serializedVersion: 2
        time: 2.7833333
        value: {x: -12.937, y: 2.901, z: -2.9980001}
        inSlope: {x: -194.05519, y: 43.51504, z: -61.09506}
        outSlope: {x: 162.98016, y: 5.220008, z: 95.8201}
        tangentMode: 0
      - serializedVersion: 2
        time: 2.8333333
        value: {x: -4.788, y: 3.1620002, z: 1.7930001}
        inSlope: {x: 162.98016, y: 5.220008, z: 95.8201}
        outSlope: {x: 0, y: 0, z: -67.13975}
        tangentMode: 0
      - serializedVersion: 2
        time: 2.8833334
        value: {x: -4.788, y: 3.1620002, z: -1.5640001}
        inSlope: {x: -0, y: -0, z: -67.13975}
        outSlope: {x: -244.47025, y: -7.8300123, z: -43.020042}
        tangentMode: 0
      - serializedVersion: 2
        time: 2.9166667
        value: {x: -12.937, y: 2.901, z: -2.9980001}
        inSlope: {x: -244.47025, y: -7.8300123, z: -43.020042}
        outSlope: {x: 162.98016, y: 5.220008, z: 95.8201}
        tangentMode: 0
      - serializedVersion: 2
        time: 2.9666667
        value: {x: -4.788, y: 3.1620002, z: 1.7930001}
        inSlope: {x: 162.98016, y: 5.220008, z: 95.8201}
        outSlope: {x: 0, y: 0, z: -67.14007}
        tangentMode: 0
      - serializedVersion: 2
        time: 3.0166667
        value: {x: -4.788, y: 3.1620002, z: -1.5640001}
        inSlope: {x: -0, y: -0, z: -67.14007}
        outSlope: {x: 95.76009, y: -63.240063, z: -17.880018}
        tangentMode: 0
      - serializedVersion: 2
        time: 3.0666666
        value: {x: 0, y: 0, z: -2.4580002}
        inSlope: {x: 95.76009, y: -63.240063, z: -17.880018}
        outSlope: {x: 0, y: 0, z: 70.66007}
        tangentMode: 0
      - serializedVersion: 2
        time: 3.1166666
        value: {x: 0, y: 0, z: 1.075}
        inSlope: {x: -0, y: -0, z: 70.66007}
        outSlope: {x: -194.05449, y: 43.514885, z: -61.094837}
        tangentMode: 0
      - serializedVersion: 2
        time: 3.1833334
        value: {x: -12.937, y: 2.901, z: -2.9980001}
        inSlope: {x: -194.05449, y: 43.514885, z: -61.094837}
        outSlope: {x: 162.98016, y: 5.220008, z: 95.8201}
        tangentMode: 0
      - serializedVersion: 2
        time: 3.2333333
        value: {x: -4.788, y: 3.1620002, z: 1.7930001}
        inSlope: {x: 162.98016, y: 5.220008, z: 95.8201}
        outSlope: {x: 0, y: 0, z: -67.14007}
        tangentMode: 0
      - serializedVersion: 2
        time: 3.2833333
        value: {x: -4.788, y: 3.1620002, z: -1.5640001}
        inSlope: {x: -0, y: -0, z: -67.14007}
        outSlope: {x: -244.47025, y: -7.8300123, z: -43.020042}
        tangentMode: 0
      - serializedVersion: 2
        time: 3.3166666
        value: {x: -12.937, y: 2.901, z: -2.9980001}
        inSlope: {x: -244.47025, y: -7.8300123, z: -43.020042}
        outSlope: {x: 162.98016, y: 5.220008, z: 95.8201}
        tangentMode: 0
      - serializedVersion: 2
        time: 3.3666666
        value: {x: -4.788, y: 3.1620002, z: 1.7930001}
        inSlope: {x: 162.98016, y: 5.220008, z: 95.8201}
        outSlope: {x: 0, y: 0, z: -67.13975}
        tangentMode: 0
      - serializedVersion: 2
        time: 3.4166667
        value: {x: -4.788, y: 3.1620002, z: -1.5640001}
        inSlope: {x: -0, y: -0, z: -67.13975}
        outSlope: {x: 95.76009, y: -63.240063, z: -17.880018}
        tangentMode: 0
      - serializedVersion: 2
        time: 3.4666667
        value: {x: 0, y: 0, z: -2.4580002}
        inSlope: {x: 95.76009, y: -63.240063, z: -17.880018}
        outSlope: {x: 0, y: 0, z: 70.66007}
        tangentMode: 0
      - serializedVersion: 2
        time: 3.5166667
        value: {x: 0, y: 0, z: 1.075}
        inSlope: {x: -0, y: -0, z: 70.66007}
        outSlope: {x: -194.05519, y: 43.51504, z: -61.09506}
        tangentMode: 0
      - serializedVersion: 2
        time: 3.5833333
        value: {x: -12.937, y: 2.901, z: -2.9980001}
        inSlope: {x: -194.05519, y: 43.51504, z: -61.09506}
        outSlope: {x: 162.97939, y: 5.219983, z: 95.81964}
        tangentMode: 0
      - serializedVersion: 2
        time: 3.6333334
        value: {x: -4.788, y: 3.1620002, z: 1.7930001}
        inSlope: {x: 162.97939, y: 5.219983, z: 95.81964}
        outSlope: {x: 0, y: 0, z: -67.14007}
        tangentMode: 0
      - serializedVersion: 2
        time: 3.6833334
        value: {x: -4.788, y: 3.1620002, z: -1.5640001}
        inSlope: {x: -0, y: -0, z: -67.14007}
        outSlope: {x: -244.47025, y: -7.8300123, z: -43.020042}
        tangentMode: 0
      - serializedVersion: 2
        time: 3.7166667
        value: {x: -12.937, y: 2.901, z: -2.9980001}
        inSlope: {x: -244.47025, y: -7.8300123, z: -43.020042}
        outSlope: {x: 162.98016, y: 5.220008, z: 95.8201}
        tangentMode: 0
      - serializedVersion: 2
        time: 3.7666667
        value: {x: -4.788, y: 3.1620002, z: 1.7930001}
        inSlope: {x: 162.98016, y: 5.220008, z: 95.8201}
        outSlope: {x: 0, y: 0, z: -67.14007}
        tangentMode: 0
      - serializedVersion: 2
        time: 3.8166666
        value: {x: -4.788, y: 3.1620002, z: -1.5640001}
        inSlope: {x: -0, y: -0, z: -67.14007}
        outSlope: {x: 95.76009, y: -63.240063, z: -17.880018}
        tangentMode: 0
      - serializedVersion: 2
        time: 3.8666666
        value: {x: 0, y: 0, z: -2.4580002}
        inSlope: {x: 95.76009, y: -63.240063, z: -17.880018}
        outSlope: {x: 0, y: 0, z: 70.65974}
        tangentMode: 0
      - serializedVersion: 2
        time: 3.9166667
        value: {x: 0, y: 0, z: 1.075}
        inSlope: {x: -0, y: -0, z: 70.65974}
        outSlope: {x: -194.05519, y: 43.51504, z: -61.09506}
        tangentMode: 0
      - serializedVersion: 2
        time: 3.9833333
        value: {x: -12.937, y: 2.901, z: -2.9980001}
        inSlope: {x: -194.05519, y: 43.51504, z: -61.09506}
        outSlope: {x: 162.98016, y: 5.220008, z: 95.8201}
        tangentMode: 0
      - serializedVersion: 2
        time: 4.0333333
        value: {x: -4.788, y: 3.1620002, z: 1.7930001}
        inSlope: {x: 162.98016, y: 5.220008, z: 95.8201}
        outSlope: {x: 0, y: 0, z: -67.13975}
        tangentMode: 0
      - serializedVersion: 2
        time: 4.0833335
        value: {x: -4.788, y: 3.1620002, z: -1.5640001}
        inSlope: {x: -0, y: -0, z: -67.13975}
        outSlope: {x: 143.64014, y: -94.86009, z: -26.820026}
        tangentMode: 0
      - serializedVersion: 2
        time: 4.116667
        value: {x: 0, y: 0, z: -2.4580002}
        inSlope: {x: 143.64014, y: -94.86009, z: -26.820026}
        outSlope: {x: 0, y: 0, z: 70.66041}
        tangentMode: 0
      - serializedVersion: 2
        time: 4.1666665
        value: {x: 0, y: 0, z: 1.075}
        inSlope: {x: -0, y: -0, z: 70.66041}
        outSlope: {x: -194.05519, y: 43.51504, z: -61.09506}
        tangentMode: 0
      - serializedVersion: 2
        time: 4.233333
        value: {x: -12.937, y: 2.901, z: -2.9980001}
        inSlope: {x: -194.05519, y: 43.51504, z: -61.09506}
        outSlope: {x: 162.97939, y: 5.219983, z: 95.81964}
        tangentMode: 0
      - serializedVersion: 2
        time: 4.2833333
        value: {x: -4.788, y: 3.1620002, z: 1.7930001}
        inSlope: {x: 162.97939, y: 5.219983, z: 95.81964}
        outSlope: {x: 0, y: 0, z: -67.13975}
        tangentMode: 0
      - serializedVersion: 2
        time: 4.3333335
        value: {x: -4.788, y: 3.1620002, z: -1.5640001}
        inSlope: {x: -0, y: -0, z: -67.13975}
        outSlope: {x: -244.47025, y: -7.8300123, z: -43.020042}
        tangentMode: 0
      - serializedVersion: 2
        time: 4.366667
        value: {x: -12.937, y: 2.901, z: -2.9980001}
        inSlope: {x: -244.47025, y: -7.8300123, z: -43.020042}
        outSlope: {x: 162.98094, y: 5.220033, z: 95.82056}
        tangentMode: 0
      - serializedVersion: 2
        time: 4.4166665
        value: {x: -4.788, y: 3.1620002, z: 1.7930001}
        inSlope: {x: 162.98094, y: 5.220033, z: 95.82056}
        outSlope: {x: 0, y: 0, z: -67.13975}
        tangentMode: 0
      - serializedVersion: 2
        time: 4.4666667
        value: {x: -4.788, y: 3.1620002, z: -1.5640001}
        inSlope: {x: -0, y: -0, z: -67.13975}
        outSlope: {x: 95.759636, y: -63.23976, z: -17.879932}
        tangentMode: 0
      - serializedVersion: 2
        time: 4.516667
        value: {x: 0, y: 0, z: -2.4580002}
        inSlope: {x: 95.759636, y: -63.23976, z: -17.879932}
        outSlope: {x: 0, y: 0, z: 70.66041}
        tangentMode: 0
      - serializedVersion: 2
        time: 4.5666666
        value: {x: 0, y: 0, z: 1.075}
        inSlope: {x: -0, y: -0, z: 70.66041}
        outSlope: {x: -194.05519, y: 43.51504, z: -61.09506}
        tangentMode: 0
      - serializedVersion: 2
        time: 4.633333
        value: {x: -12.937, y: 2.901, z: -2.9980001}
        inSlope: {x: -194.05519, y: 43.51504, z: -61.09506}
        outSlope: {x: 162.97939, y: 5.219983, z: 95.81964}
        tangentMode: 0
      - serializedVersion: 2
        time: 4.6833334
        value: {x: -4.788, y: 3.1620002, z: 1.7930001}
        inSlope: {x: 162.97939, y: 5.219983, z: 95.81964}
        outSlope: {x: 0, y: 0, z: -67.14039}
        tangentMode: 0
      - serializedVersion: 2
        time: 4.733333
        value: {x: -4.788, y: 3.1620002, z: -1.5640001}
        inSlope: {x: -0, y: -0, z: -67.14039}
        outSlope: {x: -244.46674, y: -7.8299003, z: -43.019424}
        tangentMode: 0
      - serializedVersion: 2
        time: 4.766667
        value: {x: -12.937, y: 2.901, z: -2.9980001}
        inSlope: {x: -244.46674, y: -7.8299003, z: -43.019424}
        outSlope: {x: 162.98094, y: 5.220033, z: 95.82056}
        tangentMode: 0
      - serializedVersion: 2
        time: 4.8166666
        value: {x: -4.788, y: 3.1620002, z: 1.7930001}
        inSlope: {x: 162.98094, y: 5.220033, z: 95.82056}
        outSlope: {x: 0, y: 0, z: -67.13975}
        tangentMode: 0
      - serializedVersion: 2
        time: 4.866667
        value: {x: -4.788, y: 3.1620002, z: -1.5640001}
        inSlope: {x: -0, y: -0, z: -67.13975}
        outSlope: {x: 95.76055, y: -63.240364, z: -17.880104}
        tangentMode: 0
      - serializedVersion: 2
        time: 4.9166665
        value: {x: 0, y: 0, z: -2.4580002}
        inSlope: {x: 95.76055, y: -63.240364, z: -17.880104}
        outSlope: {x: 0, y: 0, z: 70.65974}
        tangentMode: 0
      - serializedVersion: 2
        time: 4.9666667
        value: {x: 0, y: 0, z: 1.075}
        inSlope: {x: -0, y: -0, z: 70.65974}
        outSlope: {x: -194.05519, y: 43.51504, z: -61.09506}
        tangentMode: 0
      - serializedVersion: 2
        time: 5.0333333
        value: {x: -12.937, y: 2.901, z: -2.9980001}
        inSlope: {x: -194.05519, y: 43.51504, z: -61.09506}
        outSlope: {x: 162.97939, y: 5.219983, z: 95.81964}
        tangentMode: 0
      - serializedVersion: 2
        time: 5.0833335
        value: {x: -4.788, y: 3.1620002, z: 1.7930001}
        inSlope: {x: 162.97939, y: 5.219983, z: 95.81964}
        outSlope: {x: 0, y: 0, z: -67.14039}
        tangentMode: 0
      - serializedVersion: 2
        time: 5.133333
        value: {x: -4.788, y: 3.1620002, z: -1.5640001}
        inSlope: {x: -0, y: -0, z: -67.14039}
        outSlope: {x: 0, y: 0, z: 0}
        tangentMode: 0
      - serializedVersion: 2
        time: 5.1833334
        value: {x: -4.788, y: 3.1620002, z: -1.5640001}
        inSlope: {x: -0, y: -0, z: -0}
        outSlope: {x: 95.76055, y: -63.240364, z: -17.880104}
        tangentMode: 0
      - serializedVersion: 2
        time: 5.233333
        value: {x: 0, y: 0, z: -2.4580002}
        inSlope: {x: 95.76055, y: -63.240364, z: -17.880104}
        outSlope: {x: 0, y: 0, z: 70.65974}
        tangentMode: 0
      - serializedVersion: 2
        time: 5.2833333
        value: {x: 0, y: 0, z: 1.075}
        inSlope: {x: -0, y: -0, z: 70.65974}
        outSlope: {x: -194.05519, y: 43.51504, z: -61.09506}
        tangentMode: 0
      - serializedVersion: 2
        time: 5.35
        value: {x: -12.937, y: 2.901, z: -2.9980001}
        inSlope: {x: -194.05519, y: 43.51504, z: -61.09506}
        outSlope: {x: 162.97939, y: 5.219983, z: 95.81964}
        tangentMode: 0
      - serializedVersion: 2
        time: 5.4
        value: {x: -4.788, y: 3.1620002, z: 1.7930001}
        inSlope: {x: 162.97939, y: 5.219983, z: 95.81964}
        outSlope: {x: 0, y: 0, z: -67.14039}
        tangentMode: 0
      - serializedVersion: 2
        time: 5.45
        value: {x: -4.788, y: 3.1620002, z: -1.5640001}
        inSlope: {x: -0, y: -0, z: -67.14039}
        outSlope: {x: 287.27618, y: -189.71748, z: 158.33789}
        tangentMode: 0
      - serializedVersion: 2
        time: 5.4666667
        value: {x: 0, y: 0, z: 1.075}
        inSlope: {x: 287.27618, y: -189.71748, z: 158.33789}
        outSlope: {x: -194.05519, y: 43.51504, z: -61.09506}
        tangentMode: 0
      - serializedVersion: 2
        time: 5.5333333
        value: {x: -12.937, y: 2.901, z: -2.9980001}
        inSlope: {x: -194.05519, y: 43.51504, z: -61.09506}
        outSlope: {x: 162.97939, y: 5.219983, z: 95.81964}
        tangentMode: 0
      - serializedVersion: 2
        time: 5.5833335
        value: {x: -4.788, y: 3.1620002, z: 1.7930001}
        inSlope: {x: 162.97939, y: 5.219983, z: 95.81964}
        outSlope: {x: 0, y: 0, z: -100.710106}
        tangentMode: 0
      - serializedVersion: 2
        time: 5.616667
        value: {x: -4.788, y: 3.1620002, z: -1.5640001}
        inSlope: {x: -0, y: -0, z: -100.710106}
        outSlope: {x: -244.47025, y: -7.8300123, z: -43.020042}
        tangentMode: 0
      - serializedVersion: 2
        time: 5.65
        value: {x: -12.937, y: 2.901, z: -2.9980001}
        inSlope: {x: -244.47025, y: -7.8300123, z: -43.020042}
        outSlope: {x: 162.98094, y: 5.220033, z: 95.82056}
        tangentMode: 0
      - serializedVersion: 2
        time: 5.7
        value: {x: -4.788, y: 3.1620002, z: 1.7930001}
        inSlope: {x: 162.98094, y: 5.220033, z: 95.82056}
        outSlope: {x: 0, y: 0, z: -67.13975}
        tangentMode: 0
      - serializedVersion: 2
        time: 5.75
        value: {x: -4.788, y: 3.1620002, z: -1.5640001}
        inSlope: {x: -0, y: -0, z: -67.13975}
        outSlope: {x: 95.759636, y: -63.23976, z: -17.879932}
        tangentMode: 0
      - serializedVersion: 2
        time: 5.8
        value: {x: 0, y: 0, z: -2.4580002}
        inSlope: {x: 95.759636, y: -63.23976, z: -17.879932}
        outSlope: {x: 0, y: 0, z: 105.990105}
        tangentMode: 0
      - serializedVersion: 2
        time: 5.8333335
        value: {x: 0, y: 0, z: 1.075}
        inSlope: {x: -0, y: -0, z: 105.990105}
        outSlope: {x: -194.05519, y: 43.51504, z: -61.09506}
        tangentMode: 0
      - serializedVersion: 2
        time: 5.9
        value: {x: -12.937, y: 2.901, z: -2.9980001}
        inSlope: {x: -194.05519, y: 43.51504, z: -61.09506}
        outSlope: {x: 162.98094, y: 5.220033, z: 95.82056}
        tangentMode: 0
      - serializedVersion: 2
        time: 5.95
        value: {x: -4.788, y: 3.1620002, z: 1.7930001}
        inSlope: {x: 162.98094, y: 5.220033, z: 95.82056}
        outSlope: {x: 0, y: 0, z: -100.710106}
        tangentMode: 0
      - serializedVersion: 2
        time: 5.983333
        value: {x: -4.788, y: 3.1620002, z: -1.5640001}
        inSlope: {x: -0, y: -0, z: -100.710106}
        outSlope: {x: 95.43669, y: -6.47265, z: -11.108566}
        tangentMode: 0
      - serializedVersion: 2
        time: 6.8
        value: {x: 73.152, y: -2.124, z: -10.636001}
        inSlope: {x: 95.43669, y: -6.47265, z: -11.108566}
        outSlope: {x: 0, y: 0, z: 0}
        tangentMode: 0
      - serializedVersion: 2
        time: 7.8
        value: {x: 73.152, y: -2.124, z: -10.636001}
        inSlope: {x: -0, y: -0, z: -0}
        outSlope: {x: 0, y: 0, z: 0}
        tangentMode: 0
      m_PreInfinity: 2
      m_PostInfinity: 2
      m_RotationOrder: 4
    path: guaiG
  m_PositionCurves: []
  m_ScaleCurves: []
  m_FloatCurves:
  - curve:
      serializedVersion: 2
      m_Curve:
      - serializedVersion: 2
        time: 0
        value: 0
        inSlope: Infinity
        outSlope: Infinity
        tangentMode: 69
      m_PreInfinity: 2
      m_PostInfinity: 2
      m_RotationOrder: 4
    attribute: m_IsActive
    path: TalkTextReady
    classID: 1
    script: {fileID: 0}
  - curve:
      serializedVersion: 2
      m_Curve:
      - serializedVersion: 2
        time: 0
        value: 0
        inSlope: Infinity
        outSlope: Infinity
        tangentMode: 69
      m_PreInfinity: 2
      m_PostInfinity: 2
      m_RotationOrder: 4
    attribute: m_IsActive
    path: TalkTextIn01
    classID: 1
    script: {fileID: 0}
  - curve:
      serializedVersion: 2
      m_Curve:
      - serializedVersion: 2
        time: 0
        value: 1
        inSlope: Infinity
        outSlope: -0.5
        tangentMode: 69
      - serializedVersion: 2
        time: 2
        value: 0
        inSlope: Infinity
        outSlope: Infinity
        tangentMode: 103
      m_PreInfinity: 2
      m_PostInfinity: 2
      m_RotationOrder: 4
    attribute: m_IsActive
    path: TalkTextLost02
    classID: 1
    script: {fileID: 0}
  - curve:
      serializedVersion: 2
      m_Curve:
      - serializedVersion: 2
        time: 0
        value: 0
        inSlope: Infinity
        outSlope: Infinity
        tangentMode: 103
      - serializedVersion: 2
        time: 2
        value: 1
        inSlope: Infinity
        outSlope: Infinity
        tangentMode: 103
      - serializedVersion: 2
        time: 4
        value: 0
        inSlope: Infinity
        outSlope: Infinity
        tangentMode: 103
      m_PreInfinity: 2
      m_PostInfinity: 2
      m_RotationOrder: 4
    attribute: m_IsActive
    path: TalkTextLost03
    classID: 1
    script: {fileID: 0}
  - curve:
      serializedVersion: 2
      m_Curve:
      - serializedVersion: 2
        time: 0
        value: 0
        inSlope: Infinity
        outSlope: Infinity
        tangentMode: 103
      - serializedVersion: 2
        time: 4
        value: 1
        inSlope: Infinity
        outSlope: Infinity
        tangentMode: 103
      m_PreInfinity: 2
      m_PostInfinity: 2
      m_RotationOrder: 4
    attribute: m_IsActive
    path: TalkTextLost04
    classID: 1
    script: {fileID: 0}
  m_PPtrCurves: []
  m_SampleRate: 60
  m_WrapMode: 0
  m_Bounds:
    m_Center: {x: 0, y: 0, z: 0}
    m_Extent: {x: 0, y: 0, z: 0}
  m_ClipBindingConstant:
    genericBindings:
    - serializedVersion: 2
      path: 2755897636
      attribute: 4
      script: {fileID: 0}
      typeID: 4
      customType: 14
      isPPtrCurve: 0
    - serializedVersion: 2
      path: 3515806450
      attribute: 2086281974
      script: {fileID: 0}
      typeID: 1
      customType: 0
      isPPtrCurve: 0
    - serializedVersion: 2
      path: 152274410
      attribute: 2086281974
      script: {fileID: 0}
      typeID: 1
      customType: 0
      isPPtrCurve: 0
    - serializedVersion: 2
      path: 4250276013
      attribute: 2086281974
      script: {fileID: 0}
      typeID: 1
      customType: 0
      isPPtrCurve: 0
    - serializedVersion: 2
      path: 2320572475
      attribute: 2086281974
      script: {fileID: 0}
      typeID: 1
      customType: 0
      isPPtrCurve: 0
    - serializedVersion: 2
      path: 339064216
      attribute: 2086281974
      script: {fileID: 0}
      typeID: 1
      customType: 0
      isPPtrCurve: 0
    pptrCurveMapping: []
  m_AnimationClipSettings:
    serializedVersion: 2
    m_AdditiveReferencePoseClip: {fileID: 0}
    m_AdditiveReferencePoseTime: 0
    m_StartTime: 0
    m_StopTime: 7.8
    m_OrientationOffsetY: 0
    m_Level: 0
    m_CycleOffset: 0
    m_HasAdditiveReferencePose: 0
    m_LoopTime: 0
    m_LoopBlend: 0
    m_LoopBlendOrientation: 0
    m_LoopBlendPositionY: 0
    m_LoopBlendPositionXZ: 0
    m_KeepOriginalOrientation: 0
    m_KeepOriginalPositionY: 1
    m_KeepOriginalPositionXZ: 0
    m_HeightFromFeet: 0
    m_Mirror: 0
  m_EditorCurves:
  - curve:
      serializedVersion: 2
      m_Curve:
      - serializedVersion: 2
        time: 0
        value: 0
        inSlope: Infinity
        outSlope: Infinity
        tangentMode: 69
      m_PreInfinity: 2
      m_PostInfinity: 2
      m_RotationOrder: 4
    attribute: m_IsActive
    path: TalkTextReady
    classID: 1
    script: {fileID: 0}
  - curve:
      serializedVersion: 2
      m_Curve:
      - serializedVersion: 2
        time: 0
        value: 0
        inSlope: Infinity
        outSlope: Infinity
        tangentMode: 69
      m_PreInfinity: 2
      m_PostInfinity: 2
      m_RotationOrder: 4
    attribute: m_IsActive
    path: TalkTextIn01
    classID: 1
    script: {fileID: 0}
  - curve:
      serializedVersion: 2
      m_Curve:
      - serializedVersion: 2
        time: 0
        value: 1
        inSlope: Infinity
        outSlope: -0.5
        tangentMode: 69
      - serializedVersion: 2
        time: 2
        value: 0
        inSlope: Infinity
        outSlope: Infinity
        tangentMode: 103
      m_PreInfinity: 2
      m_PostInfinity: 2
      m_RotationOrder: 4
    attribute: m_IsActive
    path: TalkTextLost02
    classID: 1
    script: {fileID: 0}
  - curve:
      serializedVersion: 2
      m_Curve:
      - serializedVersion: 2
        time: 0
        value: 0
        inSlope: 0
        outSlope: 0
        tangentMode: 69
      - serializedVersion: 2
        time: 0.18333334
        value: 0
        inSlope: -0
        outSlope: -32.749092
        tangentMode: 69
      - serializedVersion: 2
        time: 0.36666667
        value: -6.004
        inSlope: -32.749092
        outSlope: -51.997505
        tangentMode: 69
      - serializedVersion: 2
        time: 0.5
        value: -12.937
        inSlope: -51.997505
        outSlope: 61.117504
        tangentMode: 69
      - serializedVersion: 2
        time: 0.6333333
        value: -4.788
        inSlope: 61.117504
        outSlope: 0
        tangentMode: 69
      - serializedVersion: 2
        time: 0.76666665
        value: -4.788
        inSlope: -0
        outSlope: 35.910004
        tangentMode: 69
      - serializedVersion: 2
        time: 0.9
        value: 0
        inSlope: 35.910004
        outSlope: 0
        tangentMode: 69
      - serializedVersion: 2
        time: 1.0166667
        value: 0
        inSlope: -0
        outSlope: -110.888565
        tangentMode: 69
      - serializedVersion: 2
        time: 1.1333333
        value: -12.937
        inSlope: -110.888565
        outSlope: 61.117504
        tangentMode: 69
      - serializedVersion: 2
        time: 1.2666667
        value: -4.788
        inSlope: 61.117504
        outSlope: 0
        tangentMode: 69
      - serializedVersion: 2
        time: 1.3333334
        value: -4.788
        inSlope: -0
        outSlope: 71.82007
        tangentMode: 69
      - serializedVersion: 2
        time: 1.4
        value: 0
        inSlope: 71.82007
        outSlope: 0
        tangentMode: 69
      - serializedVersion: 2
        time: 1.4833333
        value: 0
        inSlope: -0
        outSlope: -155.24393
        tangentMode: 69
      - serializedVersion: 2
        time: 1.5666667
        value: -12.937
        inSlope: -155.24393
        outSlope: 81.49008
        tangentMode: 69
      - serializedVersion: 2
        time: 1.6666666
        value: -4.788
        inSlope: 81.49008
        outSlope: 0
        tangentMode: 69
      - serializedVersion: 2
        time: 1.7333333
        value: -4.788
        inSlope: -0
        outSlope: -122.23512
        tangentMode: 69
      - serializedVersion: 2
        time: 1.8
        value: -12.937
        inSlope: -122.23512
        outSlope: 97.78796
        tangentMode: 69
      - serializedVersion: 2
        time: 1.8833333
        value: -4.788
        inSlope: 97.78796
        outSlope: 0
        tangentMode: 69
      - serializedVersion: 2
        time: 1.9666667
        value: -4.788
        inSlope: -0
        outSlope: 57.456055
        tangentMode: 69
      - serializedVersion: 2
        time: 2.05
        value: 0
        inSlope: 57.456055
        outSlope: 0
        tangentMode: 69
      - serializedVersion: 2
        time: 2.15
        value: 0
        inSlope: -0
        outSlope: -129.37013
        tangentMode: 69
      - serializedVersion: 2
        time: 2.25
        value: -12.937
        inSlope: -129.37013
        outSlope: 81.49008
        tangentMode: 69
      - serializedVersion: 2
        time: 2.35
        value: -4.788
        inSlope: 81.49008
        outSlope: 0
        tangentMode: 69
      - serializedVersion: 2
        time: 2.4333334
        value: -4.788
        inSlope: -0
        outSlope: -97.78809
        tangentMode: 69
      - serializedVersion: 2
        time: 2.5166667
        value: -12.937
        inSlope: -97.78809
        outSlope: 162.98016
        tangentMode: 69
      - serializedVersion: 2
        time: 2.5666666
        value: -4.788
        inSlope: 162.98016
        outSlope: 0
        tangentMode: 69
      - serializedVersion: 2
        time: 2.6166666
        value: -4.788
        inSlope: -0
        outSlope: 95.759636
        tangentMode: 69
      - serializedVersion: 2
        time: 2.6666667
        value: 0
        inSlope: 95.759636
        outSlope: 0
        tangentMode: 69
      - serializedVersion: 2
        time: 2.7166667
        value: 0
        inSlope: -0
        outSlope: -194.05519
        tangentMode: 69
      - serializedVersion: 2
        time: 2.7833333
        value: -12.937
        inSlope: -194.05519
        outSlope: 162.98016
        tangentMode: 69
      - serializedVersion: 2
        time: 2.8333333
        value: -4.788
        inSlope: 162.98016
        outSlope: 0
        tangentMode: 69
      - serializedVersion: 2
        time: 2.8833334
        value: -4.788
        inSlope: -0
        outSlope: -244.47025
        tangentMode: 69
      - serializedVersion: 2
        time: 2.9166667
        value: -12.937
        inSlope: -244.47025
        outSlope: 162.98016
        tangentMode: 69
      - serializedVersion: 2
        time: 2.9666667
        value: -4.788
        inSlope: 162.98016
        outSlope: 0
        tangentMode: 69
      - serializedVersion: 2
        time: 3.0166667
        value: -4.788
        inSlope: -0
        outSlope: 95.76009
        tangentMode: 69
      - serializedVersion: 2
        time: 3.0666666
        value: 0
        inSlope: 95.76009
        outSlope: 0
        tangentMode: 69
      - serializedVersion: 2
        time: 3.1166666
        value: 0
        inSlope: -0
        outSlope: -194.05449
        tangentMode: 69
      - serializedVersion: 2
        time: 3.1833334
        value: -12.937
        inSlope: -194.05449
        outSlope: 162.98016
        tangentMode: 69
      - serializedVersion: 2
        time: 3.2333333
        value: -4.788
        inSlope: 162.98016
        outSlope: 0
        tangentMode: 69
      - serializedVersion: 2
        time: 3.2833333
        value: -4.788
        inSlope: -0
        outSlope: -244.47025
        tangentMode: 69
      - serializedVersion: 2
        time: 3.3166666
        value: -12.937
        inSlope: -244.47025
        outSlope: 162.98016
        tangentMode: 69
      - serializedVersion: 2
        time: 3.3666666
        value: -4.788
        inSlope: 162.98016
        outSlope: 0
        tangentMode: 69
      - serializedVersion: 2
        time: 3.4166667
        value: -4.788
        inSlope: -0
        outSlope: 95.76009
        tangentMode: 69
      - serializedVersion: 2
        time: 3.4666667
        value: 0
        inSlope: 95.76009
        outSlope: 0
        tangentMode: 69
      - serializedVersion: 2
        time: 3.5166667
        value: 0
        inSlope: -0
        outSlope: -194.05519
        tangentMode: 69
      - serializedVersion: 2
        time: 3.5833333
        value: -12.937
        inSlope: -194.05519
        outSlope: 162.97939
        tangentMode: 69
      - serializedVersion: 2
        time: 3.6333334
        value: -4.788
        inSlope: 162.97939
        outSlope: 0
        tangentMode: 69
      - serializedVersion: 2
        time: 3.6833334
        value: -4.788
        inSlope: -0
        outSlope: -244.47025
        tangentMode: 69
      - serializedVersion: 2
        time: 3.7166667
        value: -12.937
        inSlope: -244.47025
        outSlope: 162.98016
        tangentMode: 69
      - serializedVersion: 2
        time: 3.7666667
        value: -4.788
        inSlope: 162.98016
        outSlope: 0
        tangentMode: 69
      - serializedVersion: 2
        time: 3.8166666
        value: -4.788
        inSlope: -0
        outSlope: 95.76009
        tangentMode: 69
      - serializedVersion: 2
        time: 3.8666666
        value: 0
        inSlope: 95.76009
        outSlope: 0
        tangentMode: 69
      - serializedVersion: 2
        time: 3.9166667
        value: 0
        inSlope: -0
        outSlope: -194.05519
        tangentMode: 69
      - serializedVersion: 2
        time: 3.9833333
        value: -12.937
        inSlope: -194.05519
        outSlope: 162.98016
        tangentMode: 69
      - serializedVersion: 2
        time: 4.0333333
        value: -4.788
        inSlope: 162.98016
        outSlope: 0
        tangentMode: 69
      - serializedVersion: 2
        time: 4.0833335
        value: -4.788
        inSlope: -0
        outSlope: 143.64014
        tangentMode: 69
      - serializedVersion: 2
        time: 4.116667
        value: 0
        inSlope: 143.64014
        outSlope: 0
        tangentMode: 69
      - serializedVersion: 2
        time: 4.1666665
        value: 0
        inSlope: -0
        outSlope: -194.05519
        tangentMode: 69
      - serializedVersion: 2
        time: 4.233333
        value: -12.937
        inSlope: -194.05519
        outSlope: 162.97939
        tangentMode: 69
      - serializedVersion: 2
        time: 4.2833333
        value: -4.788
        inSlope: 162.97939
        outSlope: 0
        tangentMode: 69
      - serializedVersion: 2
        time: 4.3333335
        value: -4.788
        inSlope: -0
        outSlope: -244.47025
        tangentMode: 69
      - serializedVersion: 2
        time: 4.366667
        value: -12.937
        inSlope: -244.47025
        outSlope: 162.98094
        tangentMode: 69
      - serializedVersion: 2
        time: 4.4166665
        value: -4.788
        inSlope: 162.98094
        outSlope: 0
        tangentMode: 69
      - serializedVersion: 2
        time: 4.4666667
        value: -4.788
        inSlope: -0
        outSlope: 95.759636
        tangentMode: 69
      - serializedVersion: 2
        time: 4.516667
        value: 0
        inSlope: 95.759636
        outSlope: 0
        tangentMode: 69
      - serializedVersion: 2
        time: 4.5666666
        value: 0
        inSlope: -0
        outSlope: -194.05519
        tangentMode: 69
      - serializedVersion: 2
        time: 4.633333
        value: -12.937
        inSlope: -194.05519
        outSlope: 162.97939
        tangentMode: 69
      - serializedVersion: 2
        time: 4.6833334
        value: -4.788
        inSlope: 162.97939
        outSlope: 0
        tangentMode: 69
      - serializedVersion: 2
        time: 4.733333
        value: -4.788
        inSlope: -0
        outSlope: -244.46674
        tangentMode: 69
      - serializedVersion: 2
        time: 4.766667
        value: -12.937
        inSlope: -244.46674
        outSlope: 162.98094
        tangentMode: 69
      - serializedVersion: 2
        time: 4.8166666
        value: -4.788
        inSlope: 162.98094
        outSlope: 0
        tangentMode: 69
      - serializedVersion: 2
        time: 4.866667
        value: -4.788
        inSlope: -0
        outSlope: 95.76055
        tangentMode: 69
      - serializedVersion: 2
        time: 4.9166665
        value: 0
        inSlope: 95.76055
        outSlope: 0
        tangentMode: 69
      - serializedVersion: 2
        time: 4.9666667
        value: 0
        inSlope: -0
        outSlope: -194.05519
        tangentMode: 69
      - serializedVersion: 2
        time: 5.0333333
        value: -12.937
        inSlope: -194.05519
        outSlope: 162.97939
        tangentMode: 69
      - serializedVersion: 2
        time: 5.0833335
        value: -4.788
        inSlope: 162.97939
        outSlope: 0
        tangentMode: 69
      - serializedVersion: 2
        time: 5.133333
        value: -4.788
        inSlope: -0
        outSlope: 0
        tangentMode: 69
      - serializedVersion: 2
        time: 5.1833334
        value: -4.788
        inSlope: -0
        outSlope: 95.76055
        tangentMode: 69
      - serializedVersion: 2
        time: 5.233333
        value: 0
        inSlope: 95.76055
        outSlope: 0
        tangentMode: 69
      - serializedVersion: 2
        time: 5.2833333
        value: 0
        inSlope: -0
        outSlope: -194.05519
        tangentMode: 69
      - serializedVersion: 2
        time: 5.35
        value: -12.937
        inSlope: -194.05519
        outSlope: 162.97939
        tangentMode: 69
      - serializedVersion: 2
        time: 5.4
        value: -4.788
        inSlope: 162.97939
        outSlope: 0
        tangentMode: 69
      - serializedVersion: 2
        time: 5.45
        value: -4.788
        inSlope: -0
        outSlope: 287.27618
        tangentMode: 69
      - serializedVersion: 2
        time: 5.4666667
        value: 0
        inSlope: 287.27618
        outSlope: -194.05519
        tangentMode: 69
      - serializedVersion: 2
        time: 5.5333333
        value: -12.937
        inSlope: -194.05519
        outSlope: 162.97939
        tangentMode: 69
      - serializedVersion: 2
        time: 5.5833335
        value: -4.788
        inSlope: 162.97939
        outSlope: 0
        tangentMode: 69
      - serializedVersion: 2
        time: 5.616667
        value: -4.788
        inSlope: -0
        outSlope: -244.47025
        tangentMode: 69
      - serializedVersion: 2
        time: 5.65
        value: -12.937
        inSlope: -244.47025
        outSlope: 162.98094
        tangentMode: 69
      - serializedVersion: 2
        time: 5.7
        value: -4.788
        inSlope: 162.98094
        outSlope: 0
        tangentMode: 69
      - serializedVersion: 2
        time: 5.75
        value: -4.788
        inSlope: -0
        outSlope: 95.759636
        tangentMode: 69
      - serializedVersion: 2
        time: 5.8
        value: 0
        inSlope: 95.759636
        outSlope: 0
        tangentMode: 69
      - serializedVersion: 2
        time: 5.8333335
        value: 0
        inSlope: -0
        outSlope: -194.05519
        tangentMode: 69
      - serializedVersion: 2
        time: 5.9
        value: -12.937
        inSlope: -194.05519
        outSlope: 162.98094
        tangentMode: 69
      - serializedVersion: 2
        time: 5.95
        value: -4.788
        inSlope: 162.98094
        outSlope: 0
        tangentMode: 69
      - serializedVersion: 2
        time: 5.983333
        value: -4.788
        inSlope: -0
        outSlope: 95.43669
        tangentMode: 69
      - serializedVersion: 2
        time: 6.8
        value: 73.152
        inSlope: 95.43669
        outSlope: 0
        tangentMode: 69
      - serializedVersion: 2
        time: 7.8
        value: 73.152
        inSlope: -0
        outSlope: 0
        tangentMode: 69
      m_PreInfinity: 2
      m_PostInfinity: 2
      m_RotationOrder: 4
    attribute: localEulerAnglesRaw.x
    path: guaiG
    classID: 4
    script: {fileID: 0}
  - curve:
      serializedVersion: 2
      m_Curve:
      - serializedVersion: 2
        time: 0
        value: 0
        inSlope: 0
        outSlope: 0
        tangentMode: 69
      - serializedVersion: 2
        time: 0.18333334
        value: 0
        inSlope: -0
        outSlope: -81.84546
        tangentMode: 69
      - serializedVersion: 2
        time: 0.36666667
        value: -15.005001
        inSlope: -81.84546
        outSlope: 134.29503
        tangentMode: 69
      - serializedVersion: 2
        time: 0.5
        value: 2.901
        inSlope: 134.29503
        outSlope: 1.9575013
        tangentMode: 69
      - serializedVersion: 2
        time: 0.6333333
        value: 3.1620002
        inSlope: 1.9575013
        outSlope: 0
        tangentMode: 69
      - serializedVersion: 2
        time: 0.76666665
        value: 3.1620002
        inSlope: -0
        outSlope: -23.715002
        tangentMode: 69
      - serializedVersion: 2
        time: 0.9
        value: 0
        inSlope: -23.715002
        outSlope: 0
        tangentMode: 69
      - serializedVersion: 2
        time: 1.0166667
        value: 0
        inSlope: -0
        outSlope: 24.865713
        tangentMode: 69
      - serializedVersion: 2
        time: 1.1333333
        value: 2.901
        inSlope: 24.865713
        outSlope: 1.9575013
        tangentMode: 69
      - serializedVersion: 2
        time: 1.2666667
        value: 3.1620002
        inSlope: 1.9575013
        outSlope: 0
        tangentMode: 69
      - serializedVersion: 2
        time: 1.3333334
        value: 3.1620002
        inSlope: -0
        outSlope: -47.430046
        tangentMode: 69
      - serializedVersion: 2
        time: 1.4
        value: 0
        inSlope: -47.430046
        outSlope: 0
        tangentMode: 69
      - serializedVersion: 2
        time: 1.4833333
        value: 0
        inSlope: -0
        outSlope: 34.811985
        tangentMode: 69
      - serializedVersion: 2
        time: 1.5666667
        value: 2.901
        inSlope: 34.811985
        outSlope: 2.610004
        tangentMode: 69
      - serializedVersion: 2
        time: 1.6666666
        value: 3.1620002
        inSlope: 2.610004
        outSlope: 0
        tangentMode: 69
      - serializedVersion: 2
        time: 1.7333333
        value: 3.1620002
        inSlope: -0
        outSlope: -3.9150062
        tangentMode: 69
      - serializedVersion: 2
        time: 1.8
        value: 2.901
        inSlope: -3.9150062
        outSlope: 3.1320004
        tangentMode: 69
      - serializedVersion: 2
        time: 1.8833333
        value: 3.1620002
        inSlope: 3.1320004
        outSlope: 0
        tangentMode: 69
      - serializedVersion: 2
        time: 1.9666667
        value: 3.1620002
        inSlope: -0
        outSlope: -37.94404
        tangentMode: 69
      - serializedVersion: 2
        time: 2.05
        value: 0
        inSlope: -37.94404
        outSlope: 0
        tangentMode: 69
      - serializedVersion: 2
        time: 2.15
        value: 0
        inSlope: -0
        outSlope: 29.010029
        tangentMode: 69
      - serializedVersion: 2
        time: 2.25
        value: 2.901
        inSlope: 29.010029
        outSlope: 2.610004
        tangentMode: 69
      - serializedVersion: 2
        time: 2.35
        value: 3.1620002
        inSlope: 2.610004
        outSlope: 0
        tangentMode: 69
      - serializedVersion: 2
        time: 2.4333334
        value: 3.1620002
        inSlope: -0
        outSlope: -3.132005
        tangentMode: 69
      - serializedVersion: 2
        time: 2.5166667
        value: 2.901
        inSlope: -3.132005
        outSlope: 5.220008
        tangentMode: 69
      - serializedVersion: 2
        time: 2.5666666
        value: 3.1620002
        inSlope: 5.220008
        outSlope: 0
        tangentMode: 69
      - serializedVersion: 2
        time: 2.6166666
        value: 3.1620002
        inSlope: -0
        outSlope: -63.23976
        tangentMode: 69
      - serializedVersion: 2
        time: 2.6666667
        value: 0
        inSlope: -63.23976
        outSlope: 0
        tangentMode: 69
      - serializedVersion: 2
        time: 2.7166667
        value: 0
        inSlope: -0
        outSlope: 43.51504
        tangentMode: 69
      - serializedVersion: 2
        time: 2.7833333
        value: 2.901
        inSlope: 43.51504
        outSlope: 5.220008
        tangentMode: 69
      - serializedVersion: 2
        time: 2.8333333
        value: 3.1620002
        inSlope: 5.220008
        outSlope: 0
        tangentMode: 69
      - serializedVersion: 2
        time: 2.8833334
        value: 3.1620002
        inSlope: -0
        outSlope: -7.8300123
        tangentMode: 69
      - serializedVersion: 2
        time: 2.9166667
        value: 2.901
        inSlope: -7.8300123
        outSlope: 5.220008
        tangentMode: 69
      - serializedVersion: 2
        time: 2.9666667
        value: 3.1620002
        inSlope: 5.220008
        outSlope: 0
        tangentMode: 69
      - serializedVersion: 2
        time: 3.0166667
        value: 3.1620002
        inSlope: -0
        outSlope: -63.240063
        tangentMode: 69
      - serializedVersion: 2
        time: 3.0666666
        value: 0
        inSlope: -63.240063
        outSlope: 0
        tangentMode: 69
      - serializedVersion: 2
        time: 3.1166666
        value: 0
        inSlope: -0
        outSlope: 43.514885
        tangentMode: 69
      - serializedVersion: 2
        time: 3.1833334
        value: 2.901
        inSlope: 43.514885
        outSlope: 5.220008
        tangentMode: 69
      - serializedVersion: 2
        time: 3.2333333
        value: 3.1620002
        inSlope: 5.220008
        outSlope: 0
        tangentMode: 69
      - serializedVersion: 2
        time: 3.2833333
        value: 3.1620002
        inSlope: -0
        outSlope: -7.8300123
        tangentMode: 69
      - serializedVersion: 2
        time: 3.3166666
        value: 2.901
        inSlope: -7.8300123
        outSlope: 5.220008
        tangentMode: 69
      - serializedVersion: 2
        time: 3.3666666
        value: 3.1620002
        inSlope: 5.220008
        outSlope: 0
        tangentMode: 69
      - serializedVersion: 2
        time: 3.4166667
        value: 3.1620002
        inSlope: -0
        outSlope: -63.240063
        tangentMode: 69
      - serializedVersion: 2
        time: 3.4666667
        value: 0
        inSlope: -63.240063
        outSlope: 0
        tangentMode: 69
      - serializedVersion: 2
        time: 3.5166667
        value: 0
        inSlope: -0
        outSlope: 43.51504
        tangentMode: 69
      - serializedVersion: 2
        time: 3.5833333
        value: 2.901
        inSlope: 43.51504
        outSlope: 5.219983
        tangentMode: 69
      - serializedVersion: 2
        time: 3.6333334
        value: 3.1620002
        inSlope: 5.219983
        outSlope: 0
        tangentMode: 69
      - serializedVersion: 2
        time: 3.6833334
        value: 3.1620002
        inSlope: -0
        outSlope: -7.8300123
        tangentMode: 69
      - serializedVersion: 2
        time: 3.7166667
        value: 2.901
        inSlope: -7.8300123
        outSlope: 5.220008
        tangentMode: 69
      - serializedVersion: 2
        time: 3.7666667
        value: 3.1620002
        inSlope: 5.220008
        outSlope: 0
        tangentMode: 69
      - serializedVersion: 2
        time: 3.8166666
        value: 3.1620002
        inSlope: -0
        outSlope: -63.240063
        tangentMode: 69
      - serializedVersion: 2
        time: 3.8666666
        value: 0
        inSlope: -63.240063
        outSlope: 0
        tangentMode: 69
      - serializedVersion: 2
        time: 3.9166667
        value: 0
        inSlope: -0
        outSlope: 43.51504
        tangentMode: 69
      - serializedVersion: 2
        time: 3.9833333
        value: 2.901
        inSlope: 43.51504
        outSlope: 5.220008
        tangentMode: 69
      - serializedVersion: 2
        time: 4.0333333
        value: 3.1620002
        inSlope: 5.220008
        outSlope: 0
        tangentMode: 69
      - serializedVersion: 2
        time: 4.0833335
        value: 3.1620002
        inSlope: -0
        outSlope: -94.86009
        tangentMode: 69
      - serializedVersion: 2
        time: 4.116667
        value: 0
        inSlope: -94.86009
        outSlope: 0
        tangentMode: 69
      - serializedVersion: 2
        time: 4.1666665
        value: 0
        inSlope: -0
        outSlope: 43.51504
        tangentMode: 69
      - serializedVersion: 2
        time: 4.233333
        value: 2.901
        inSlope: 43.51504
        outSlope: 5.219983
        tangentMode: 69
      - serializedVersion: 2
        time: 4.2833333
        value: 3.1620002
        inSlope: 5.219983
        outSlope: 0
        tangentMode: 69
      - serializedVersion: 2
        time: 4.3333335
        value: 3.1620002
        inSlope: -0
        outSlope: -7.8300123
        tangentMode: 69
      - serializedVersion: 2
        time: 4.366667
        value: 2.901
        inSlope: -7.8300123
        outSlope: 5.220033
        tangentMode: 69
      - serializedVersion: 2
        time: 4.4166665
        value: 3.1620002
        inSlope: 5.220033
        outSlope: 0
        tangentMode: 69
      - serializedVersion: 2
        time: 4.4666667
        value: 3.1620002
        inSlope: -0
        outSlope: -63.23976
        tangentMode: 69
      - serializedVersion: 2
        time: 4.516667
        value: 0
        inSlope: -63.23976
        outSlope: 0
        tangentMode: 69
      - serializedVersion: 2
        time: 4.5666666
        value: 0
        inSlope: -0
        outSlope: 43.51504
        tangentMode: 69
      - serializedVersion: 2
        time: 4.633333
        value: 2.901
        inSlope: 43.51504
        outSlope: 5.219983
        tangentMode: 69
      - serializedVersion: 2
        time: 4.6833334
        value: 3.1620002
        inSlope: 5.219983
        outSlope: 0
        tangentMode: 69
      - serializedVersion: 2
        time: 4.733333
        value: 3.1620002
        inSlope: -0
        outSlope: -7.8299003
        tangentMode: 69
      - serializedVersion: 2
        time: 4.766667
        value: 2.901
        inSlope: -7.8299003
        outSlope: 5.220033
        tangentMode: 69
      - serializedVersion: 2
        time: 4.8166666
        value: 3.1620002
        inSlope: 5.220033
        outSlope: 0
        tangentMode: 69
      - serializedVersion: 2
        time: 4.866667
        value: 3.1620002
        inSlope: -0
        outSlope: -63.240364
        tangentMode: 69
      - serializedVersion: 2
        time: 4.9166665
        value: 0
        inSlope: -63.240364
        outSlope: 0
        tangentMode: 69
      - serializedVersion: 2
        time: 4.9666667
        value: 0
        inSlope: -0
        outSlope: 43.51504
        tangentMode: 69
      - serializedVersion: 2
        time: 5.0333333
        value: 2.901
        inSlope: 43.51504
        outSlope: 5.219983
        tangentMode: 69
      - serializedVersion: 2
        time: 5.0833335
        value: 3.1620002
        inSlope: 5.219983
        outSlope: 0
        tangentMode: 69
      - serializedVersion: 2
        time: 5.133333
        value: 3.1620002
        inSlope: -0
        outSlope: 0
        tangentMode: 69
      - serializedVersion: 2
        time: 5.1833334
        value: 3.1620002
        inSlope: -0
        outSlope: -63.240364
        tangentMode: 69
      - serializedVersion: 2
        time: 5.233333
        value: 0
        inSlope: -63.240364
        outSlope: 0
        tangentMode: 69
      - serializedVersion: 2
        time: 5.2833333
        value: 0
        inSlope: -0
        outSlope: 43.51504
        tangentMode: 69
      - serializedVersion: 2
        time: 5.35
        value: 2.901
        inSlope: 43.51504
        outSlope: 5.219983
        tangentMode: 69
      - serializedVersion: 2
        time: 5.4
        value: 3.1620002
        inSlope: 5.219983
        outSlope: 0
        tangentMode: 69
      - serializedVersion: 2
        time: 5.45
        value: 3.1620002
        inSlope: -0
        outSlope: -189.71748
        tangentMode: 69
      - serializedVersion: 2
        time: 5.4666667
        value: 0
        inSlope: -189.71748
        outSlope: 43.51504
        tangentMode: 69
      - serializedVersion: 2
        time: 5.5333333
        value: 2.901
        inSlope: 43.51504
        outSlope: 5.219983
        tangentMode: 69
      - serializedVersion: 2
        time: 5.5833335
        value: 3.1620002
        inSlope: 5.219983
        outSlope: 0
        tangentMode: 69
      - serializedVersion: 2
        time: 5.616667
        value: 3.1620002
        inSlope: -0
        outSlope: -7.8300123
        tangentMode: 69
      - serializedVersion: 2
        time: 5.65
        value: 2.901
        inSlope: -7.8300123
        outSlope: 5.220033
        tangentMode: 69
      - serializedVersion: 2
        time: 5.7
        value: 3.1620002
        inSlope: 5.220033
        outSlope: 0
        tangentMode: 69
      - serializedVersion: 2
        time: 5.75
        value: 3.1620002
        inSlope: -0
        outSlope: -63.23976
        tangentMode: 69
      - serializedVersion: 2
        time: 5.8
        value: 0
        inSlope: -63.23976
        outSlope: 0
        tangentMode: 69
      - serializedVersion: 2
        time: 5.8333335
        value: 0
        inSlope: -0
        outSlope: 43.51504
        tangentMode: 69
      - serializedVersion: 2
        time: 5.9
        value: 2.901
        inSlope: 43.51504
        outSlope: 5.220033
        tangentMode: 69
      - serializedVersion: 2
        time: 5.95
        value: 3.1620002
        inSlope: 5.220033
        outSlope: 0
        tangentMode: 69
      - serializedVersion: 2
        time: 5.983333
        value: 3.1620002
        inSlope: -0
        outSlope: -6.47265
        tangentMode: 69
      - serializedVersion: 2
        time: 6.8
        value: -2.124
        inSlope: -6.47265
        outSlope: 0
        tangentMode: 69
      - serializedVersion: 2
        time: 7.8
        value: -2.124
        inSlope: -0
        outSlope: 0
        tangentMode: 69
      m_PreInfinity: 2
      m_PostInfinity: 2
      m_RotationOrder: 4
    attribute: localEulerAnglesRaw.y
    path: guaiG
    classID: 4
    script: {fileID: 0}
  - curve:
      serializedVersion: 2
      m_Curve:
      - serializedVersion: 2
        time: 0
        value: -2.4580002
        inSlope: 0
        outSlope: 19.27091
        tangentMode: 69
      - serializedVersion: 2
        time: 0.18333334
        value: 1.075
        inSlope: 19.27091
        outSlope: 0.6709092
        tangentMode: 69
      - serializedVersion: 2
        time: 0.36666667
        value: 1.1980001
        inSlope: 0.6709092
        outSlope: -31.470003
        tangentMode: 69
      - serializedVersion: 2
        time: 0.5
        value: -2.9980001
        inSlope: -31.470003
        outSlope: 35.932507
        tangentMode: 69
      - serializedVersion: 2
        time: 0.6333333
        value: 1.7930001
        inSlope: 35.932507
        outSlope: -25.177504
        tangentMode: 69
      - serializedVersion: 2
        time: 0.76666665
        value: -1.5640001
        inSlope: -25.177504
        outSlope: -6.705001
        tangentMode: 69
      - serializedVersion: 2
        time: 0.9
        value: -2.4580002
        inSlope: -6.705001
        outSlope: 30.282858
        tangentMode: 69
      - serializedVersion: 2
        time: 1.0166667
        value: 1.075
        inSlope: 30.282858
        outSlope: -34.911427
        tangentMode: 69
      - serializedVersion: 2
        time: 1.1333333
        value: -2.9980001
        inSlope: -34.911427
        outSlope: 35.932507
        tangentMode: 69
      - serializedVersion: 2
        time: 1.2666667
        value: 1.7930001
        inSlope: 35.932507
        outSlope: -50.35496
        tangentMode: 69
      - serializedVersion: 2
        time: 1.3333334
        value: -1.5640001
        inSlope: -50.35496
        outSlope: -13.410013
        tangentMode: 69
      - serializedVersion: 2
        time: 1.4
        value: -2.4580002
        inSlope: -13.410013
        outSlope: 42.39598
        tangentMode: 69
      - serializedVersion: 2
        time: 1.4833333
        value: 1.075
        inSlope: 42.39598
        outSlope: -48.875977
        tangentMode: 69
      - serializedVersion: 2
        time: 1.5666667
        value: -2.9980001
        inSlope: -48.875977
        outSlope: 47.91005
        tangentMode: 69
      - serializedVersion: 2
        time: 1.6666666
        value: 1.7930001
        inSlope: 47.91005
        outSlope: -50.35496
        tangentMode: 69
      - serializedVersion: 2
        time: 1.7333333
        value: -1.5640001
        inSlope: -50.35496
        outSlope: -21.510021
        tangentMode: 69
      - serializedVersion: 2
        time: 1.8
        value: -2.9980001
        inSlope: -21.510021
        outSlope: 57.491978
        tangentMode: 69
      - serializedVersion: 2
        time: 1.8833333
        value: 1.7930001
        inSlope: 57.491978
        outSlope: -40.283985
        tangentMode: 69
      - serializedVersion: 2
        time: 1.9666667
        value: -1.5640001
        inSlope: -40.283985
        outSlope: -10.728011
        tangentMode: 69
      - serializedVersion: 2
        time: 2.05
        value: -2.4580002
        inSlope: -10.728011
        outSlope: 35.329952
        tangentMode: 69
      - serializedVersion: 2
        time: 2.15
        value: 1.075
        inSlope: 35.329952
        outSlope: -40.730038
        tangentMode: 69
      - serializedVersion: 2
        time: 2.25
        value: -2.9980001
        inSlope: -40.730038
        outSlope: 47.91005
        tangentMode: 69
      - serializedVersion: 2
        time: 2.35
        value: 1.7930001
        inSlope: 47.91005
        outSlope: -40.283928
        tangentMode: 69
      - serializedVersion: 2
        time: 2.4333334
        value: -1.5640001
        inSlope: -40.283928
        outSlope: -17.208017
        tangentMode: 69
      - serializedVersion: 2
        time: 2.5166667
        value: -2.9980001
        inSlope: -17.208017
        outSlope: 95.8201
        tangentMode: 69
      - serializedVersion: 2
        time: 2.5666666
        value: 1.7930001
        inSlope: 95.8201
        outSlope: -67.14007
        tangentMode: 69
      - serializedVersion: 2
        time: 2.6166666
        value: -1.5640001
        inSlope: -67.14007
        outSlope: -17.879932
        tangentMode: 69
      - serializedVersion: 2
        time: 2.6666667
        value: -2.4580002
        inSlope: -17.879932
        outSlope: 70.66007
        tangentMode: 69
      - serializedVersion: 2
        time: 2.7166667
        value: 1.075
        inSlope: 70.66007
        outSlope: -61.09506
        tangentMode: 69
      - serializedVersion: 2
        time: 2.7833333
        value: -2.9980001
        inSlope: -61.09506
        outSlope: 95.8201
        tangentMode: 69
      - serializedVersion: 2
        time: 2.8333333
        value: 1.7930001
        inSlope: 95.8201
        outSlope: -67.13975
        tangentMode: 69
      - serializedVersion: 2
        time: 2.8833334
        value: -1.5640001
        inSlope: -67.13975
        outSlope: -43.020042
        tangentMode: 69
      - serializedVersion: 2
        time: 2.9166667
        value: -2.9980001
        inSlope: -43.020042
        outSlope: 95.8201
        tangentMode: 69
      - serializedVersion: 2
        time: 2.9666667
        value: 1.7930001
        inSlope: 95.8201
        outSlope: -67.14007
        tangentMode: 69
      - serializedVersion: 2
        time: 3.0166667
        value: -1.5640001
        inSlope: -67.14007
        outSlope: -17.880018
        tangentMode: 69
      - serializedVersion: 2
        time: 3.0666666
        value: -2.4580002
        inSlope: -17.880018
        outSlope: 70.66007
        tangentMode: 69
      - serializedVersion: 2
        time: 3.1166666
        value: 1.075
        inSlope: 70.66007
        outSlope: -61.094837
        tangentMode: 69
      - serializedVersion: 2
        time: 3.1833334
        value: -2.9980001
        inSlope: -61.094837
        outSlope: 95.8201
        tangentMode: 69
      - serializedVersion: 2
        time: 3.2333333
        value: 1.7930001
        inSlope: 95.8201
        outSlope: -67.14007
        tangentMode: 69
      - serializedVersion: 2
        time: 3.2833333
        value: -1.5640001
        inSlope: -67.14007
        outSlope: -43.020042
        tangentMode: 69
      - serializedVersion: 2
        time: 3.3166666
        value: -2.9980001
        inSlope: -43.020042
        outSlope: 95.8201
        tangentMode: 69
      - serializedVersion: 2
        time: 3.3666666
        value: 1.7930001
        inSlope: 95.8201
        outSlope: -67.13975
        tangentMode: 69
      - serializedVersion: 2
        time: 3.4166667
        value: -1.5640001
        inSlope: -67.13975
        outSlope: -17.880018
        tangentMode: 69
      - serializedVersion: 2
        time: 3.4666667
        value: -2.4580002
        inSlope: -17.880018
        outSlope: 70.66007
        tangentMode: 69
      - serializedVersion: 2
        time: 3.5166667
        value: 1.075
        inSlope: 70.66007
        outSlope: -61.09506
        tangentMode: 69
      - serializedVersion: 2
        time: 3.5833333
        value: -2.9980001
        inSlope: -61.09506
        outSlope: 95.81964
        tangentMode: 69
      - serializedVersion: 2
        time: 3.6333334
        value: 1.7930001
        inSlope: 95.81964
        outSlope: -67.14007
        tangentMode: 69
      - serializedVersion: 2
        time: 3.6833334
        value: -1.5640001
        inSlope: -67.14007
        outSlope: -43.020042
        tangentMode: 69
      - serializedVersion: 2
        time: 3.7166667
        value: -2.9980001
        inSlope: -43.020042
        outSlope: 95.8201
        tangentMode: 69
      - serializedVersion: 2
        time: 3.7666667
        value: 1.7930001
        inSlope: 95.8201
        outSlope: -67.14007
        tangentMode: 69
      - serializedVersion: 2
        time: 3.8166666
        value: -1.5640001
        inSlope: -67.14007
        outSlope: -17.880018
        tangentMode: 69
      - serializedVersion: 2
        time: 3.8666666
        value: -2.4580002
        inSlope: -17.880018
        outSlope: 70.65974
        tangentMode: 69
      - serializedVersion: 2
        time: 3.9166667
        value: 1.075
        inSlope: 70.65974
        outSlope: -61.09506
        tangentMode: 69
      - serializedVersion: 2
        time: 3.9833333
        value: -2.9980001
        inSlope: -61.09506
        outSlope: 95.8201
        tangentMode: 69
      - serializedVersion: 2
        time: 4.0333333
        value: 1.7930001
        inSlope: 95.8201
        outSlope: -67.13975
        tangentMode: 69
      - serializedVersion: 2
        time: 4.0833335
        value: -1.5640001
        inSlope: -67.13975
        outSlope: -26.820026
        tangentMode: 69
      - serializedVersion: 2
        time: 4.116667
        value: -2.4580002
        inSlope: -26.820026
        outSlope: 70.66041
        tangentMode: 69
      - serializedVersion: 2
        time: 4.1666665
        value: 1.075
        inSlope: 70.66041
        outSlope: -61.09506
        tangentMode: 69
      - serializedVersion: 2
        time: 4.233333
        value: -2.9980001
        inSlope: -61.09506
        outSlope: 95.81964
        tangentMode: 69
      - serializedVersion: 2
        time: 4.2833333
        value: 1.7930001
        inSlope: 95.81964
        outSlope: -67.13975
        tangentMode: 69
      - serializedVersion: 2
        time: 4.3333335
        value: -1.5640001
        inSlope: -67.13975
        outSlope: -43.020042
        tangentMode: 69
      - serializedVersion: 2
        time: 4.366667
        value: -2.9980001
        inSlope: -43.020042
        outSlope: 95.82056
        tangentMode: 69
      - serializedVersion: 2
        time: 4.4166665
        value: 1.7930001
        inSlope: 95.82056
        outSlope: -67.13975
        tangentMode: 69
      - serializedVersion: 2
        time: 4.4666667
        value: -1.5640001
        inSlope: -67.13975
        outSlope: -17.879932
        tangentMode: 69
      - serializedVersion: 2
        time: 4.516667
        value: -2.4580002
        inSlope: -17.879932
        outSlope: 70.66041
        tangentMode: 69
      - serializedVersion: 2
        time: 4.5666666
        value: 1.075
        inSlope: 70.66041
        outSlope: -61.09506
        tangentMode: 69
      - serializedVersion: 2
        time: 4.633333
        value: -2.9980001
        inSlope: -61.09506
        outSlope: 95.81964
        tangentMode: 69
      - serializedVersion: 2
        time: 4.6833334
        value: 1.7930001
        inSlope: 95.81964
        outSlope: -67.14039
        tangentMode: 69
      - serializedVersion: 2
        time: 4.733333
        value: -1.5640001
        inSlope: -67.14039
        outSlope: -43.019424
        tangentMode: 69
      - serializedVersion: 2
        time: 4.766667
        value: -2.9980001
        inSlope: -43.019424
        outSlope: 95.82056
        tangentMode: 69
      - serializedVersion: 2
        time: 4.8166666
        value: 1.7930001
        inSlope: 95.82056
        outSlope: -67.13975
        tangentMode: 69
      - serializedVersion: 2
        time: 4.866667
        value: -1.5640001
        inSlope: -67.13975
        outSlope: -17.880104
        tangentMode: 69
      - serializedVersion: 2
        time: 4.9166665
        value: -2.4580002
        inSlope: -17.880104
        outSlope: 70.65974
        tangentMode: 69
      - serializedVersion: 2
        time: 4.9666667
        value: 1.075
        inSlope: 70.65974
        outSlope: -61.09506
        tangentMode: 69
      - serializedVersion: 2
        time: 5.0333333
        value: -2.9980001
        inSlope: -61.09506
        outSlope: 95.81964
        tangentMode: 69
      - serializedVersion: 2
        time: 5.0833335
        value: 1.7930001
        inSlope: 95.81964
        outSlope: -67.14039
        tangentMode: 69
      - serializedVersion: 2
        time: 5.133333
        value: -1.5640001
        inSlope: -67.14039
        outSlope: 0
        tangentMode: 69
      - serializedVersion: 2
        time: 5.1833334
        value: -1.5640001
        inSlope: -0
        outSlope: -17.880104
        tangentMode: 69
      - serializedVersion: 2
        time: 5.233333
        value: -2.4580002
        inSlope: -17.880104
        outSlope: 70.65974
        tangentMode: 69
      - serializedVersion: 2
        time: 5.2833333
        value: 1.075
        inSlope: 70.65974
        outSlope: -61.09506
        tangentMode: 69
      - serializedVersion: 2
        time: 5.35
        value: -2.9980001
        inSlope: -61.09506
        outSlope: 95.81964
        tangentMode: 69
      - serializedVersion: 2
        time: 5.4
        value: 1.7930001
        inSlope: 95.81964
        outSlope: -67.14039
        tangentMode: 69
      - serializedVersion: 2
        time: 5.45
        value: -1.5640001
        inSlope: -67.14039
        outSlope: 158.33789
        tangentMode: 69
      - serializedVersion: 2
        time: 5.4666667
        value: 1.075
        inSlope: 158.33789
        outSlope: -61.09506
        tangentMode: 69
      - serializedVersion: 2
        time: 5.5333333
        value: -2.9980001
        inSlope: -61.09506
        outSlope: 95.81964
        tangentMode: 69
      - serializedVersion: 2
        time: 5.5833335
        value: 1.7930001
        inSlope: 95.81964
        outSlope: -100.710106
        tangentMode: 69
      - serializedVersion: 2
        time: 5.616667
        value: -1.5640001
        inSlope: -100.710106
        outSlope: -43.020042
        tangentMode: 69
      - serializedVersion: 2
        time: 5.65
        value: -2.9980001
        inSlope: -43.020042
        outSlope: 95.82056
        tangentMode: 69
      - serializedVersion: 2
        time: 5.7
        value: 1.7930001
        inSlope: 95.82056
        outSlope: -67.13975
        tangentMode: 69
      - serializedVersion: 2
        time: 5.75
        value: -1.5640001
        inSlope: -67.13975
        outSlope: -17.879932
        tangentMode: 69
      - serializedVersion: 2
        time: 5.8
        value: -2.4580002
        inSlope: -17.879932
        outSlope: 105.990105
        tangentMode: 69
      - serializedVersion: 2
        time: 5.8333335
        value: 1.075
        inSlope: 105.990105
        outSlope: -61.09506
        tangentMode: 69
      - serializedVersion: 2
        time: 5.9
        value: -2.9980001
        inSlope: -61.09506
        outSlope: 95.82056
        tangentMode: 69
      - serializedVersion: 2
        time: 5.95
        value: 1.7930001
        inSlope: 95.82056
        outSlope: -100.710106
        tangentMode: 69
      - serializedVersion: 2
        time: 5.983333
        value: -1.5640001
        inSlope: -100.710106
        outSlope: -11.108566
        tangentMode: 69
      - serializedVersion: 2
        time: 6.8
        value: -10.636001
        inSlope: -11.108566
        outSlope: 0
        tangentMode: 69
      - serializedVersion: 2
        time: 7.8
        value: -10.636001
        inSlope: -0
        outSlope: 0
        tangentMode: 69
      m_PreInfinity: 2
      m_PostInfinity: 2
      m_RotationOrder: 4
    attribute: localEulerAnglesRaw.z
    path: guaiG
    classID: 4
    script: {fileID: 0}
  - curve:
      serializedVersion: 2
      m_Curve:
      - serializedVersion: 2
        time: 0
        value: 0
        inSlope: Infinity
        outSlope: Infinity
        tangentMode: 103
      - serializedVersion: 2
        time: 2
        value: 1
        inSlope: Infinity
        outSlope: Infinity
        tangentMode: 103
      - serializedVersion: 2
        time: 4
        value: 0
        inSlope: Infinity
        outSlope: Infinity
        tangentMode: 103
      m_PreInfinity: 2
      m_PostInfinity: 2
      m_RotationOrder: 4
    attribute: m_IsActive
    path: TalkTextLost03
    classID: 1
    script: {fileID: 0}
  - curve:
      serializedVersion: 2
      m_Curve:
      - serializedVersion: 2
        time: 0
        value: 0
        inSlope: Infinity
        outSlope: Infinity
        tangentMode: 103
      - serializedVersion: 2
        time: 4
        value: 1
        inSlope: Infinity
        outSlope: Infinity
        tangentMode: 103
      m_PreInfinity: 2
      m_PostInfinity: 2
      m_RotationOrder: 4
    attribute: m_IsActive
    path: TalkTextLost04
    classID: 1
    script: {fileID: 0}
  m_EulerEditorCurves:
  - curve:
      serializedVersion: 2
      m_Curve: []
      m_PreInfinity: 2
      m_PostInfinity: 2
      m_RotationOrder: 4
    attribute: m_LocalEulerAngles.x
    path: guaiG
    classID: 4
    script: {fileID: 0}
  - curve:
      serializedVersion: 2
      m_Curve: []
      m_PreInfinity: 2
      m_PostInfinity: 2
      m_RotationOrder: 4
    attribute: m_LocalEulerAngles.y
    path: guaiG
    classID: 4
    script: {fileID: 0}
  - curve:
      serializedVersion: 2
      m_Curve: []
      m_PreInfinity: 2
      m_PostInfinity: 2
      m_RotationOrder: 4
    attribute: m_LocalEulerAngles.z
    path: guaiG
    classID: 4
    script: {fileID: 0}
  m_HasGenericRootTransform: 0
  m_HasMotionFloatCurves: 0
  m_GenerateMotionCurves: 0
  m_Events: []
