%YAML 1.1
%TAG !u! tag:unity3d.com,2011:
--- !u!74 &7400000
AnimationClip:
  m_ObjectHideFlags: 0
  m_PrefabParentObject: {fileID: 0}
  m_PrefabInternal: {fileID: 0}
  m_Name: punchWan
  serializedVersion: 6
  m_Legacy: 0
  m_Compressed: 0
  m_UseHighQualityCurve: 1
  m_RotationCurves: []
  m_CompressedRotationCurves: []
  m_EulerCurves:
  - curve:
      serializedVersion: 2
      m_Curve:
      - serializedVersion: 2
        time: 0
        value: {x: 0, y: 0, z: 30.716002}
        inSlope: {x: 0, y: 0, z: 0}
        outSlope: {x: 0, y: 0, z: 0}
        tangentMode: 0
      - serializedVersion: 2
        time: 0.6666667
        value: {x: 0, y: 0, z: 30.716002}
        inSlope: {x: -0, y: -0, z: -0}
        outSlope: {x: 0, y: 0, z: -3910.564}
        tangentMode: 0
      - serializedVersion: 2
        time: 0.68333334
        value: {x: 0, y: 0, z: -34.460003}
        inSlope: {x: -0, y: -0, z: -3910.564}
        outSlope: {x: 0, y: 0, z: 0}
        tangentMode: 0
      - serializedVersion: 2
        time: 2
        value: {x: 0, y: 0, z: -34.460003}
        inSlope: {x: -0, y: -0, z: -0}
        outSlope: {x: 0, y: 0, z: 0}
        tangentMode: 0
      m_PreInfinity: 2
      m_PostInfinity: 2
      m_RotationOrder: 4
    path: punch1
  m_PositionCurves:
  - curve:
      serializedVersion: 2
      m_Curve:
      - serializedVersion: 2
        time: 0
        value: {x: 0.17, y: 2.37, z: 0}
        inSlope: {x: 0, y: 0, z: 0}
        outSlope: {x: -7.41, y: -4.4099994, z: 0}
        tangentMode: 0
      - serializedVersion: 2
        time: 0.6666667
        value: {x: -4.77, y: -0.57, z: 0}
        inSlope: {x: -7.41, y: -4.4099994, z: -0}
        outSlope: {x: -10.740001, y: 9.4125, z: 0}
        tangentMode: 0
      - serializedVersion: 2
        time: 2
        value: {x: -19.09, y: 11.98, z: 0}
        inSlope: {x: -10.740001, y: 9.4125, z: -0}
        outSlope: {x: 0, y: 0, z: 0}
        tangentMode: 0
      m_PreInfinity: 2
      m_PostInfinity: 2
      m_RotationOrder: 4
    path: punch1
  m_ScaleCurves: []
  m_FloatCurves: []
  m_PPtrCurves:
  - curve:
    - time: 1.8333334
      value: {fileID: 0}
    - time: 1.85
      value: {fileID: 21300000, guid: c3f685212fc101e409808cffe4699f98, type: 3}
    - time: 1.8666668
      value: {fileID: 21300000, guid: 237f8823f2297534f95ecafc0fc9c256, type: 3}
    - time: 1.8833334
      value: {fileID: 21300000, guid: 2fcd899d45bd8d245a2241197b97da02, type: 3}
    - time: 1.9000001
      value: {fileID: 21300000, guid: c6007871eae145f4088a30f09cae365f, type: 3}
    - time: 1.9166667
      value: {fileID: 21300000, guid: 4f933c928bb486d469b2e4693b9c0ab5, type: 3}
    - time: 1.9333334
      value: {fileID: 21300000, guid: 648f696a3c8b3ae4f95bebedfc899df5, type: 3}
    - time: 1.95
      value: {fileID: 21300000, guid: 439b330e0d9c48f4ba119832a47d3647, type: 3}
    - time: 1.9666667
      value: {fileID: 21300000, guid: 3933f11412a16fe48abc9e217ea0bac0, type: 3}
    - time: 1.9833333
      value: {fileID: 21300000, guid: 25ff6f0882363b94186d38acba8e4307, type: 3}
    attribute: m_Sprite
    path: punch1/tx
    classID: 212
    script: {fileID: 0}
  - curve:
    - time: 0
      value: {fileID: 21300038, guid: a55fdb107e2cf8d48909bca0d2a9dafc, type: 3}
    - time: 1.95
      value: {fileID: 0}
    attribute: m_Sprite
    path: punch1
    classID: 212
    script: {fileID: 0}
  - curve:
    - time: 0
      value: {fileID: 21300038, guid: a55fdb107e2cf8d48909bca0d2a9dafc, type: 3}
    - time: 1.95
      value: {fileID: 0}
    attribute: m_Sprite
    path: punch1/punch1 (2)
    classID: 212
    script: {fileID: 0}
  - curve:
    - time: 0
      value: {fileID: 21300038, guid: a55fdb107e2cf8d48909bca0d2a9dafc, type: 3}
    - time: 1.95
      value: {fileID: 0}
    attribute: m_Sprite
    path: punch1/punch1 (1)
    classID: 212
    script: {fileID: 0}
  m_SampleRate: 60
  m_WrapMode: 0
  m_Bounds:
    m_Center: {x: 0, y: 0, z: 0}
    m_Extent: {x: 0, y: 0, z: 0}
  m_ClipBindingConstant:
    genericBindings:
    - serializedVersion: 2
      path: 3863009025
      attribute: 1
      script: {fileID: 0}
      typeID: 4
      customType: 0
      isPPtrCurve: 0
    - serializedVersion: 2
      path: 3863009025
      attribute: 4
      script: {fileID: 0}
      typeID: 4
      customType: 14
      isPPtrCurve: 0
    - serializedVersion: 2
      path: 1622861226
      attribute: 0
      script: {fileID: 0}
      typeID: 212
      customType: 23
      isPPtrCurve: 1
    - serializedVersion: 2
      path: 3863009025
      attribute: 0
      script: {fileID: 0}
      typeID: 212
      customType: 23
      isPPtrCurve: 1
    - serializedVersion: 2
      path: 3951501669
      attribute: 0
      script: {fileID: 0}
      typeID: 212
      customType: 23
      isPPtrCurve: 1
    - serializedVersion: 2
      path: 3232395942
      attribute: 0
      script: {fileID: 0}
      typeID: 212
      customType: 23
      isPPtrCurve: 1
    pptrCurveMapping:
    - {fileID: 0}
    - {fileID: 21300000, guid: c3f685212fc101e409808cffe4699f98, type: 3}
    - {fileID: 21300000, guid: 237f8823f2297534f95ecafc0fc9c256, type: 3}
    - {fileID: 21300000, guid: 2fcd899d45bd8d245a2241197b97da02, type: 3}
    - {fileID: 21300000, guid: c6007871eae145f4088a30f09cae365f, type: 3}
    - {fileID: 21300000, guid: 4f933c928bb486d469b2e4693b9c0ab5, type: 3}
    - {fileID: 21300000, guid: 648f696a3c8b3ae4f95bebedfc899df5, type: 3}
    - {fileID: 21300000, guid: 439b330e0d9c48f4ba119832a47d3647, type: 3}
    - {fileID: 21300000, guid: 3933f11412a16fe48abc9e217ea0bac0, type: 3}
    - {fileID: 21300000, guid: 25ff6f0882363b94186d38acba8e4307, type: 3}
    - {fileID: 21300038, guid: a55fdb107e2cf8d48909bca0d2a9dafc, type: 3}
    - {fileID: 0}
    - {fileID: 21300038, guid: a55fdb107e2cf8d48909bca0d2a9dafc, type: 3}
    - {fileID: 0}
    - {fileID: 21300038, guid: a55fdb107e2cf8d48909bca0d2a9dafc, type: 3}
    - {fileID: 0}
  m_AnimationClipSettings:
    serializedVersion: 2
    m_AdditiveReferencePoseClip: {fileID: 0}
    m_AdditiveReferencePoseTime: 0
    m_StartTime: 0
    m_StopTime: 2
    m_OrientationOffsetY: 0
    m_Level: 0
    m_CycleOffset: 0
    m_HasAdditiveReferencePose: 0
    m_LoopTime: 0
    m_LoopBlend: 0
    m_LoopBlendOrientation: 0
    m_LoopBlendPositionY: 0
    m_LoopBlendPositionXZ: 0
    m_KeepOriginalOrientation: 0
    m_KeepOriginalPositionY: 1
    m_KeepOriginalPositionXZ: 0
    m_HeightFromFeet: 0
    m_Mirror: 0
  m_EditorCurves:
  - curve:
      serializedVersion: 2
      m_Curve:
      - serializedVersion: 2
        time: 0
        value: 0.17
        inSlope: 0
        outSlope: -7.41
        tangentMode: 69
      - serializedVersion: 2
        time: 0.6666667
        value: -4.77
        inSlope: -7.41
        outSlope: -10.740001
        tangentMode: 69
      - serializedVersion: 2
        time: 2
        value: -19.09
        inSlope: -10.740001
        outSlope: 0
        tangentMode: 69
      m_PreInfinity: 2
      m_PostInfinity: 2
      m_RotationOrder: 4
    attribute: m_LocalPosition.x
    path: punch1
    classID: 4
    script: {fileID: 0}
  - curve:
      serializedVersion: 2
      m_Curve:
      - serializedVersion: 2
        time: 0
        value: 2.37
        inSlope: 0
        outSlope: -4.4099994
        tangentMode: 69
      - serializedVersion: 2
        time: 0.6666667
        value: -0.57
        inSlope: -4.4099994
        outSlope: 9.4125
        tangentMode: 69
      - serializedVersion: 2
        time: 2
        value: 11.98
        inSlope: 9.4125
        outSlope: 0
        tangentMode: 69
      m_PreInfinity: 2
      m_PostInfinity: 2
      m_RotationOrder: 4
    attribute: m_LocalPosition.y
    path: punch1
    classID: 4
    script: {fileID: 0}
  - curve:
      serializedVersion: 2
      m_Curve:
      - serializedVersion: 2
        time: 0
        value: 0
        inSlope: 0
        outSlope: 0
        tangentMode: 69
      - serializedVersion: 2
        time: 0.6666667
        value: 0
        inSlope: -0
        outSlope: 0
        tangentMode: 69
      - serializedVersion: 2
        time: 2
        value: 0
        inSlope: -0
        outSlope: 0
        tangentMode: 69
      m_PreInfinity: 2
      m_PostInfinity: 2
      m_RotationOrder: 4
    attribute: m_LocalPosition.z
    path: punch1
    classID: 4
    script: {fileID: 0}
  - curve:
      serializedVersion: 2
      m_Curve:
      - serializedVersion: 2
        time: 0
        value: 0
        inSlope: 0
        outSlope: 0
        tangentMode: 69
      - serializedVersion: 2
        time: 0.6666667
        value: 0
        inSlope: -0
        outSlope: 0
        tangentMode: 69
      - serializedVersion: 2
        time: 0.68333334
        value: 0
        inSlope: -0
        outSlope: 0
        tangentMode: 69
      - serializedVersion: 2
        time: 2
        value: 0
        inSlope: -0
        outSlope: 0
        tangentMode: 69
      m_PreInfinity: 2
      m_PostInfinity: 2
      m_RotationOrder: 4
    attribute: localEulerAnglesRaw.x
    path: punch1
    classID: 4
    script: {fileID: 0}
  - curve:
      serializedVersion: 2
      m_Curve:
      - serializedVersion: 2
        time: 0
        value: 0
        inSlope: 0
        outSlope: 0
        tangentMode: 69
      - serializedVersion: 2
        time: 0.6666667
        value: 0
        inSlope: -0
        outSlope: 0
        tangentMode: 69
      - serializedVersion: 2
        time: 0.68333334
        value: 0
        inSlope: -0
        outSlope: 0
        tangentMode: 69
      - serializedVersion: 2
        time: 2
        value: 0
        inSlope: -0
        outSlope: 0
        tangentMode: 69
      m_PreInfinity: 2
      m_PostInfinity: 2
      m_RotationOrder: 4
    attribute: localEulerAnglesRaw.y
    path: punch1
    classID: 4
    script: {fileID: 0}
  - curve:
      serializedVersion: 2
      m_Curve:
      - serializedVersion: 2
        time: 0
        value: 30.716002
        inSlope: 0
        outSlope: 0
        tangentMode: 69
      - serializedVersion: 2
        time: 0.6666667
        value: 30.716002
        inSlope: -0
        outSlope: -3910.564
        tangentMode: 69
      - serializedVersion: 2
        time: 0.68333334
        value: -34.460003
        inSlope: -3910.564
        outSlope: 0
        tangentMode: 69
      - serializedVersion: 2
        time: 2
        value: -34.460003
        inSlope: -0
        outSlope: 0
        tangentMode: 69
      m_PreInfinity: 2
      m_PostInfinity: 2
      m_RotationOrder: 4
    attribute: localEulerAnglesRaw.z
    path: punch1
    classID: 4
    script: {fileID: 0}
  m_EulerEditorCurves:
  - curve:
      serializedVersion: 2
      m_Curve: []
      m_PreInfinity: 2
      m_PostInfinity: 2
      m_RotationOrder: 4
    attribute: m_LocalEulerAngles.x
    path: punch1
    classID: 4
    script: {fileID: 0}
  - curve:
      serializedVersion: 2
      m_Curve: []
      m_PreInfinity: 2
      m_PostInfinity: 2
      m_RotationOrder: 4
    attribute: m_LocalEulerAngles.y
    path: punch1
    classID: 4
    script: {fileID: 0}
  - curve:
      serializedVersion: 2
      m_Curve: []
      m_PreInfinity: 2
      m_PostInfinity: 2
      m_RotationOrder: 4
    attribute: m_LocalEulerAngles.z
    path: punch1
    classID: 4
    script: {fileID: 0}
  m_HasGenericRootTransform: 0
  m_HasMotionFloatCurves: 0
  m_GenerateMotionCurves: 0
  m_Events: []
